i, max output cc, min l_i, med l_i, min s_i, med s_i, min kappa_i, med kappa_i
0,-1,0,0.0,0,0.0,0,0.0
1,2394226776,47,48.0,129,129.0,129,129.0
2,2394267376,0,0.0,0,0.0,129,129.0
3,2682227432,0,0.0,0,0.0,129,129.0
4,2682262144,0,0.0,0,0.0,129,129.0
5,2970362728,0,0.0,0,0.0,129,129.0
6,2970397488,0,0.0,0,0.0,129,129.0
7,2986397584,0,0.0,0,0.0,129,129.0
8,3146241632,0,0.0,0,0.0,129,129.0
9,3148707848,0,0.0,0,0.0,129,129.0
10,3148722832,0,0.0,0,0.0,129,129.0
11,9589159872,4,4.0,51,51.0,129,129.0
12,9589589760,0,0.0,0,0.0,129,129.0
13,9589912296,0,0.0,0,0.0,129,129.0
14,9589926152,0,0.0,0,0.0,129,129.0
15,9589933872,0,0.0,0,0.0,129,129.0
16,9590345416,0,0.0,0,0.0,129,129.0
17,9592401032,0,0.0,0,0.0,129,129.0
18,9594198952,0,0.0,0,0.0,129,129.0
19,9596653608,0,0.0,0,0.0,129,129.0
20,9598681288,0,0.0,0,0.0,129,129.0
21,9600479088,0,0.0,0,0.0,129,129.0
22,9602470768,0,0.0,0,0.0,129,129.0
23,9604282720,0,0.0,0,0.0,129,129.0
24,9605948784,0,0.0,0,0.0,129,129.0
25,9605964688,0,0.0,0,0.0,129,129.0
26,9605975704,0,0.0,0,0.0,129,129.0
27,9605986664,0,0.0,0,0.0,129,129.0
28,10081855960,0,9.0,0,112.0,129,129.0
29,10083710904,0,0.0,0,0.0,129,129.0
30,10085275848,0,0.0,0,0.0,129,129.0
31,10086668112,0,0.0,0,0.0,129,129.0
32,10088026744,0,0.0,0,0.0,129,129.0
33,10089429888,0,0.0,0,0.0,129,129.0
34,10090945392,0,0.0,0,0.0,129,129.0
35,10092455952,0,0.0,0,0.0,129,129.0
36,10093925496,0,0.0,0,0.0,129,129.0
37,10095785328,0,0.0,0,0.0,129,129.0
38,10097288520,0,0.0,0,0.0,129,129.0
39,10098719112,0,0.0,0,0.0,129,129.0
40,10100222648,0,0.0,0,0.0,129,129.0
41,10101920424,0,0.0,0,0.0,129,129.0
42,10103739968,0,0.0,0,0.0,129,129.0
43,10107423608,0,0.0,0,0.0,129,129.0
44,10109358816,0,0.0,0,0.0,129,129.0
45,10111081184,0,0.0,0,0.0,129,129.0
46,10112604488,0,0.0,0,0.0,129,129.0
47,10114261704,0,0.0,0,0.0,129,129.0
48,10115788864,0,0.0,0,0.0,129,129.0
49,10117510880,0,0.0,0,0.0,129,129.0
50,10119064912,0,0.0,0,0.0,129,129.0
51,10122741760,0,0.0,0,0.0,129,129.0
52,10122987696,0,0.0,0,0.0,129,129.0
53,10125185624,0,0.0,0,0.0,129,129.0
54,10126059480,0,0.0,0,0.0,129,129.0
55,10127051944,0,0.0,0,0.0,129,129.0
56,10127446712,0,0.0,0,0.0,129,129.0
57,10128116568,0,0.0,0,0.0,129,129.0
58,10128214456,0,0.0,0,0.0,129,129.0
59,10128925928,0,0.0,0,0.0,129,129.0
60,10131535856,0,0.0,0,0.0,129,129.0
61,10137672128,0,0.0,0,0.0,129,129.0
62,10141077968,0,0.0,0,0.0,129,129.0
63,10143417168,0,0.0,0,0.0,129,129.0
64,10144470744,0,0.0,0,0.0,129,129.0
65,10145380024,0,0.0,0,0.0,129,129.0
66,10145673536,0,0.0,0,0.0,129,129.0
67,10146178832,0,0.0,0,0.0,129,129.0
68,10148195280,0,0.0,0,0.0,129,129.0
69,10149436192,0,0.0,0,0.0,129,129.0
70,10150201088,0,0.0,0,0.0,129,129.0
71,10151583640,0,0.0,0,0.0,129,129.0
72,10152507320,0,0.0,0,0.0,129,129.0
73,10154343176,0,0.0,0,0.0,129,129.0
74,10155655840,0,0.0,0,0.0,129,129.0
75,10157834440,0,0.0,0,0.0,129,129.0
76,10159326056,0,0.0,0,0.0,129,129.0
77,10160496064,0,0.0,0,0.0,129,129.0
78,10161508640,0,0.0,0,0.0,129,129.0
79,10164243992,0,0.0,0,0.0,129,129.0
80,10167021872,0,0.0,0,0.0,129,129.0
81,10168517512,0,0.0,0,0.0,129,129.0
82,10175875208,0,0.0,0,0.0,129,129.0
83,10177688048,0,0.0,0,0.0,129,129.0
84,10180109400,0,0.0,0,0.0,129,129.0
85,10183452824,0,0.0,0,0.0,129,129.0
86,10184039184,0,0.0,0,0.0,129,129.0
87,10184996936,0,0.0,0,0.0,129,129.0
88,10186235944,0,0.0,0,0.0,129,129.0
89,10187912904,0,0.0,0,0.0,129,129.0
90,10193574624,0,0.0,0,0.0,129,129.0
91,10193641336,0,0.0,0,0.0,129,129.0
92,10197517456,0,0.0,0,0.0,129,129.0
93,10198966184,0,0.0,0,0.0,129,129.0
94,10199856888,0,0.0,0,0.0,129,129.0
95,10202055568,0,0.0,0,0.0,129,129.0
96,10204157776,0,0.0,0,0.0,129,129.0
97,10206308808,0,0.0,0,0.0,129,129.0
98,10207773720,0,0.0,0,0.0,129,129.0
99,10208465648,0,0.0,0,0.0,129,129.0
100,10210758208,0,0.0,0,0.0,129,129.0
101,10211020112,0,0.0,0,0.0,129,129.0
102,10213335120,0,0.0,0,0.0,129,129.0
103,10213764904,0,0.0,0,0.0,129,129.0
104,10216158152,0,0.0,0,0.0,129,129.0
105,10220365304,0,0.0,0,0.0,129,129.0
106,10223527888,0,0.0,0,0.0,129,129.0
107,10223994560,0,0.0,0,0.0,129,129.0
108,10224352264,0,0.0,0,0.0,129,129.0
109,10225680472,0,0.0,0,0.0,129,129.0
110,10226459392,0,0.0,0,0.0,129,129.0
111,10227787832,0,0.0,0,0.0,129,129.0
112,10228158608,0,0.0,0,0.0,129,129.0
113,10232037208,0,0.0,0,0.0,129,129.0
114,10233740160,0,0.0,0,0.0,129,129.0
115,10235727232,0,0.0,0,0.0,129,129.0
116,10243523464,0,0.0,0,0.0,129,129.0
117,10243953760,0,0.0,0,0.0,129,129.0
118,10245088824,0,0.0,0,0.0,129,129.0
119,10245937800,0,0.0,0,0.0,129,129.0
120,10248763456,0,0.0,0,0.0,129,129.0
121,10249554368,0,0.0,0,0.0,129,129.0
122,10250464880,0,0.0,0,0.0,129,129.0
123,10251270144,0,0.0,0,0.0,129,129.0
124,10252556872,0,0.0,0,0.0,129,129.0
125,10253234312,0,0.0,0,0.0,129,129.0
126,10254040512,0,0.0,0,0.0,129,129.0
127,10255507008,0,0.0,0,0.0,129,129.0
128,10255770056,0,0.0,0,0.0,129,129.0
129,10257670584,0,0.0,0,0.0,129,129.0
130,10257886272,0,0.0,0,0.0,129,129.0
131,10260267032,0,0.0,0,0.0,129,129.0
132,10323592456,0,0.0,0,0.0,129,129.0
133,10367812104,0,2.0,0,26.0,129,130.5
134,10372752376,0,0.0,0,0.0,129,1024.0
135,10381519176,0,0.0,0,0.0,129,1024.0
136,10509925200,0,0.0,0,0.0,129,1024.0
137,10631635248,0,7.0,0,83.0,129,1024.0
138,10698266176,0,10.0,0,116.0,129,1024.0
139,10699915496,0,10.0,0,115.0,129,1024.0
140,10701652808,0,10.0,0,116.0,1024,1024.0
141,10705715688,0,22.0,0,249.5,1024,1024.0
142,10727977800,0,24.0,0,262.0,1024,1024.0
143,10731631288,0,17.5,0,197.0,1024,1024.0
144,10782192000,0,16.0,0,181.0,1024,1024.0
145,10782974760,0,0.0,0,0.0,1024,1024.0
146,10847760608,0,0.0,0,0.0,1024,1024.0
147,10935276328,0,0.0,0,0.0,1024,1024.0
148,10936802752,0,0.0,0,0.0,1024,1024.0
149,10937552824,0,0.0,0,0.0,1024,1024.0
150,10939073248,0,0.0,0,0.0,1024,1024.0
151,10940405272,0,0.0,0,0.0,1024,1024.0
152,10941858744,0,0.0,0,0.0,1024,1024.0
153,10942785056,0,0.0,0,0.0,1024,1024.0
154,10943898320,0,0.0,0,0.0,1024,1024.0
155,10974861856,0,7.0,0,92.0,1024,1024.0
156,11006455464,0,0.0,0,0.0,1024,1024.0
157,11008251408,0,0.0,0,0.0,1024,1024.0
158,11098242608,0,0.0,0,0.0,1024,1024.0
159,11185764776,0,0.0,0,0.0,1024,1024.0
160,11187035192,0,0.0,0,0.0,1024,1024.0
161,11188572608,0,0.0,0,0.0,1024,1024.0
162,11189987816,0,0.0,0,0.0,1024,1024.0
163,11192272400,0,0.0,0,0.0,1024,1024.0
164,11210581312,0,14.0,0,171.0,1024,1024.0
165,11276434832,0,103.5,0,1024.0,1024,1024.0
166,11323005824,0,6.0,0,70.0,1024,1024.0
167,11324178992,0,0.0,0,0.0,1024,1024.0
168,11326657216,0,0.0,0,0.0,1024,1024.0
169,11328592320,0,0.0,0,0.0,1024,1024.0
170,11390711176,0,0.0,0,0.0,1024,1024.0
171,11457370912,0,0.0,0,0.0,1024,1024.0
172,11663591568,0,0.0,0,0.0,1024,1024.0
173,11788061312,0,3.0,0,33.5,1024,1024.0
174,11850911184,0,7.5,0,87.0,1024,1024.0
175,12842489336,0,2.5,0,27.5,1024,1024.0
176,13199284888,0,17.0,0,192.0,1024,1024.0
177,13310377280,0,32.0,0,320.0,1024,1024.0
178,13376982784,0,76.0,0,770.0,1024,1024.0
179,13423670384,0,32.0,0,320.0,1024,1024.0
180,13707708880,0,6.0,0,63.0,1024,1024.0
181,13754382136,0,6.0,0,69.0,1024,1024.0
182,13755628360,0,10.0,0,98.0,1024,1024.0
183,19546360520,0,9.0,0,90.5,1024,1024.0
184,19701559392,0,14.0,0,148.0,1024,1024.0
185,20404484944,0,58.0,0,616.0,1024,1024.0
186,20537718344,0,54.0,0,316.0,1024,1024.0
187,20655476328,0,182.0,0,316.0,1024,1024.0
188,20694992848,0,0.0,0,0.0,1024,1024.0
189,20868611040,0,0.0,0,0.0,1024,1024.0
190,20937901728,0,0.0,0,0.0,1024,1024.0
191,20939640920,0,0.0,0,0.0,1024,1024.0
192,20943572232,0,0.0,0,0.0,1024,1024.0
193,20945117592,0,0.0,0,0.0,1024,1024.0
194,20948956096,0,0.0,0,0.0,1024,1024.0
195,20950593656,0,0.0,0,0.0,1024,1024.0
196,20952317840,0,0.0,0,0.0,1024,1024.0
197,20953573888,0,0.0,0,0.0,1024,1024.0
198,20953811608,0,0.0,0,0.0,1024,1024.0
199,20954620272,0,0.0,0,0.0,1024,1024.0
