i, max output cc, min l_i, med l_i, min s_i, med s_i, min kappa_i, med kappa_i
0,-1,0,0.0,0,0.0,0,0.0
1,2553987776,65,66.0,0,0.0,0,0.0
2,2724772912,1,1.0,0,24.0,0,24.0
3,2731015904,0,0.0,0,0.0,0,24.0
4,2731041544,0,0.0,0,0.0,0,24.0
5,4004151336,8,8.0,0,0.0,0,24.0
6,4008978936,0,0.0,0,0.0,0,24.0
7,4009835264,0,0.0,0,0.0,0,24.0
8,4009848768,0,0.0,0,0.0,0,24.0
9,13866830408,0,75.0,0,0.0,0,24.0
10,13958667872,0,0.0,0,0.0,0,24.0
11,13966038240,0,0.0,0,0.0,0,24.0
12,13971823656,0,0.0,0,0.0,0,24.0
13,13977167008,0,0.0,0,0.0,0,24.0
14,13982564744,0,0.0,0,0.0,0,24.0
15,13987572472,0,0.0,0,0.0,0,24.0
16,13992144536,0,0.0,0,0.0,0,24.0
17,13992162936,0,0.0,0,0.0,0,24.0
18,13992173664,0,0.0,0,0.0,0,24.0
19,13992184280,0,0.0,0,0.0,0,24.0
20,13992194880,0,0.0,0,0.0,0,24.0
21,13992205296,0,0.0,0,0.0,0,24.0
22,13992215776,0,0.0,0,0.0,0,24.0
23,13992226176,0,0.0,0,0.0,0,24.0
24,13992236776,0,0.0,0,0.0,0,24.0
25,13992247472,0,0.0,0,0.0,0,24.0
26,13992257944,0,0.0,0,0.0,0,24.0
27,13992268584,0,0.0,0,0.0,0,24.0
28,13992279032,0,0.0,0,0.0,0,24.0
29,13992289432,0,0.0,0,0.0,0,24.0
30,13992299888,0,0.0,0,0.0,0,24.0
31,13992310528,0,0.0,0,0.0,0,24.0
32,13992320960,0,0.0,0,0.0,0,24.0
33,13992331560,0,0.0,0,0.0,0,24.0
34,13992342000,0,0.0,0,0.0,0,24.0
35,13992363760,0,0.0,0,0.0,0,24.0
36,13992374752,0,0.0,0,0.0,0,24.0
37,13992385368,0,0.0,0,0.0,0,24.0
38,13992395808,0,0.0,0,0.0,0,24.0
39,13992406192,0,0.0,0,0.0,0,24.0
40,13992416616,0,0.0,0,0.0,0,24.0
41,13992427040,0,0.0,0,0.0,0,24.0
42,13992437536,0,0.0,0,0.0,0,24.0
43,13992447968,0,0.0,0,0.0,0,24.0
44,13992458408,0,0.0,0,0.0,0,24.0
45,13992468864,0,0.0,0,0.0,0,24.0
46,13992479336,0,0.0,0,0.0,0,24.0
47,13992489728,0,0.0,0,0.0,0,24.0
48,13992500168,0,0.0,0,0.0,0,24.0
49,13992510608,0,0.0,0,0.0,0,24.0
50,13992521048,0,0.0,0,0.0,0,24.0
51,13992531488,0,0.0,0,0.0,0,24.0
52,13992541928,0,0.0,0,0.0,0,24.0
53,13992552352,0,0.0,0,0.0,0,24.0
54,13992562792,0,0.0,0,0.0,0,24.0
55,13992573176,0,0.0,0,0.0,0,24.0
56,13992583648,0,0.0,0,0.0,0,24.0
57,13992594176,0,0.0,0,0.0,0,24.0
58,13992604752,0,0.0,0,0.0,0,24.0
59,13992615440,0,0.0,0,0.0,0,24.0
60,13992625888,0,0.0,0,0.0,0,24.0
61,13992636272,0,0.0,0,0.0,0,24.0
62,13992646712,0,0.0,0,0.0,0,24.0
63,13992657344,0,0.0,0,0.0,0,24.0
64,13992667800,0,0.0,0,0.0,0,24.0
65,13992678184,0,0.0,0,0.0,0,24.0
66,13992696208,0,0.0,0,0.0,0,24.0
67,13992706624,0,0.0,0,0.0,0,24.0
68,13992717312,0,0.0,0,0.0,0,24.0
69,13992727760,0,0.0,0,0.0,0,24.0
70,13992738224,0,0.0,0,0.0,0,24.0
71,13992748648,0,0.0,0,0.0,0,24.0
72,13992759096,0,0.0,0,0.0,0,24.0
73,13992769504,0,0.0,0,0.0,0,24.0
74,13992779952,0,0.0,0,0.0,0,24.0
75,13992790344,0,0.0,0,0.0,0,24.0
76,13992800792,0,0.0,0,0.0,0,24.0
77,13992811208,0,0.0,0,0.0,0,24.0
78,13992821656,0,0.0,0,0.0,0,24.0
79,13992832160,0,0.0,0,0.0,0,24.0
80,14002968536,0,0.0,0,0.0,0,24.0
81,14056843168,0,0.0,0,0.0,0,24.0
82,14056859328,0,0.0,0,0.0,0,24.0
83,14094223152,0,0.0,0,0.0,0,24.0
84,14099819872,0,0.0,0,0.0,0,24.0
85,14104274608,0,0.0,0,0.0,0,24.0
86,14108640696,0,0.0,0,0.0,0,24.0
87,14112955488,0,0.0,0,0.0,0,24.0
88,14117253016,0,0.0,0,0.0,0,24.0
89,14121863160,0,0.0,0,0.0,0,24.0
90,14126443112,0,0.0,0,0.0,0,24.0
91,14130988736,0,0.0,0,0.0,0,24.0
92,14135842952,0,0.0,0,0.0,0,24.0
93,14140315944,0,0.0,0,0.0,0,24.0
94,14144516512,0,0.0,0,0.0,0,24.0
95,14149191280,0,0.0,0,0.0,0,24.0
96,14153726640,0,0.0,0,0.0,0,24.0
97,14157794824,0,0.0,0,0.0,0,24.0
98,14164811584,0,0.0,0,0.0,0,24.0
99,14171111696,0,0.0,0,0.0,0,24.0
100,14177852792,0,0.0,0,0.0,0,24.0
101,14182565768,0,0.0,0,0.0,0,24.0
102,14187819456,0,0.0,0,0.0,0,24.0
103,14192744872,0,0.0,0,0.0,0,24.0
104,14198025264,0,0.0,0,0.0,0,24.0
105,14202584824,0,0.0,0,0.0,0,24.0
106,14215342232,0,0.0,0,0.0,0,24.0
107,14230073704,0,0.0,0,0.0,0,24.0
108,14236332760,0,0.0,0,0.0,0,24.0
109,14245006208,0,2.0,0,0.0,0,24.0
110,14251130280,0,2.0,0,0.0,0,24.0
111,14262697440,0,2.0,0,0.0,0,24.0
112,14276003992,0,0.0,0,0.0,0,24.0
113,14282274080,0,0.0,0,0.0,0,24.0
114,14298617032,0,1.5,0,0.0,0,24.0
115,14384632032,0,0.0,0,0.0,0,24.0
116,14394672096,0,0.0,0,0.0,0,24.0
117,14406010880,0,0.0,0,0.0,0,24.0
118,14410833136,0,0.0,0,0.0,0,24.0
119,14415912920,0,0.0,0,0.0,0,24.0
120,14421030312,0,0.0,0,0.0,0,24.0
121,14427912728,0,0.0,0,0.0,0,24.0
122,14433010536,0,0.0,0,0.0,0,24.0
123,14438001672,0,0.0,0,0.0,0,24.0
124,14443869032,0,0.0,0,0.0,0,24.0
125,14447468776,0,0.0,0,0.0,0,24.0
126,14453781008,0,0.0,0,0.0,0,24.0
127,14461565304,0,0.0,0,0.0,0,24.0
128,14464842176,0,0.0,0,0.0,0,24.0
129,14488269800,0,0.0,0,0.0,0,24.0
130,14493581696,0,0.0,0,0.0,0,24.0
131,14502358328,0,0.0,0,0.0,0,24.0
132,14513697672,0,0.0,0,0.0,0,24.0
133,14534171352,0,0.0,0,0.0,0,24.0
134,14547008912,0,0.0,0,0.0,0,24.0
135,14552906472,0,0.0,0,0.0,0,24.0
136,14557483688,0,0.0,0,0.0,0,24.0
137,14563241544,0,0.0,0,0.0,0,24.0
138,14568862632,0,0.0,0,0.0,0,24.0
139,14574553960,0,0.0,0,0.0,0,24.0
140,14582772056,0,0.0,0,0.0,0,24.0
141,14600631016,0,0.0,0,0.0,0,24.0
142,14608200248,0,0.0,0,0.0,0,24.0
143,14626436448,0,0.0,0,0.0,0,24.0
144,14640159768,0,0.0,0,0.0,0,24.0
145,14656720672,0,0.0,0,0.0,0,24.0
146,14678653112,0,0.0,0,0.0,0,24.0
147,14685854016,0,0.0,0,0.0,0,24.0
148,14869827320,0,0.0,0,0.0,0,24.0
149,14881948264,0,0.0,0,0.0,0,24.0
150,14925235192,0,0.0,0,0.0,0,24.0
151,14927931488,0,0.0,0,0.0,0,24.0
152,14936527384,0,0.0,0,0.0,0,24.0
153,14942336792,0,0.0,0,0.0,0,24.0
154,14949994624,0,0.0,0,0.0,0,24.0
155,14957138120,0,0.0,0,0.0,0,24.0
156,14963653784,0,0.0,0,0.0,0,24.0
157,15813782248,0,0.0,0,0.0,0,24.0
158,15820761640,0,0.0,0,0.0,0,24.0
159,15827511360,0,0.0,0,0.0,0,24.0
160,15833420720,0,0.0,0,0.0,0,24.0
161,15836041296,0,0.0,0,0.0,0,24.0
162,15844388640,0,0.0,0,0.0,0,24.0
163,15851602728,0,0.0,0,0.0,0,24.0
164,15858427656,0,0.0,0,0.0,0,24.0
165,15864460040,0,0.0,0,0.0,0,24.0
166,15871395080,0,0.0,0,0.0,0,24.0
167,15879292512,0,0.0,0,0.0,0,24.0
168,15893234160,0,0.0,0,0.0,0,24.0
169,15899737976,0,0.0,0,0.0,0,24.0
170,15905797864,0,0.0,0,0.0,0,24.0
171,15912115144,0,0.0,0,0.0,0,24.0
172,16031043360,0,1.0,0,0.0,0,24.0
173,16038999168,0,0.0,0,0.0,0,24.0
174,16057163672,0,0.0,0,0.0,0,24.0
175,16064151648,0,0.0,0,0.0,0,24.0
176,16067461464,0,0.0,0,0.0,0,24.0
177,16083221688,0,0.0,0,0.0,0,24.0
178,16109905456,0,1.0,0,0.0,0,24.0
179,16119688536,0,0.0,0,0.0,0,24.0
180,16219508512,0,0.0,0,0.0,0,24.0
181,16227585656,0,0.0,0,0.0,0,24.0
182,16716715088,0,0.0,0,0.0,0,24.0
183,17026119560,0,35.5,0,0.0,0,24.0
184,17040587936,0,17.0,0,0.0,0,24.0
185,17048475560,0,6.0,0,0.0,0,24.0
186,17074615376,0,117.5,0,0.0,0,24.0
187,17080701512,0,8.0,0,0.0,0,24.0
188,17088505392,4,7.0,0,0.0,0,24.0
189,17126861128,0,210.0,0,0.0,0,48.0
190,17132484264,0,0.0,0,0.0,0,60.0
191,17140224504,0,0.0,0,0.0,0,72.0
192,17145430672,0,0.0,0,0.0,24,72.0
193,17150999840,0,0.0,0,0.0,24,72.0
194,17156456384,0,0.0,0,0.0,24,72.0
195,17161999800,0,0.0,0,0.0,24,72.0
196,17168979824,0,10.0,0,240.0,24,240.0
197,18216719216,0,846.0,0,632.0,24,1024.0
198,18223436008,0,0.0,0,0.0,24,1024.0
199,18230640608,0,0.0,0,0.0,24,1024.0
