i, max output cc, min l_i, med l_i, min s_i, med s_i, min kappa_i, med kappa_i
0,2436833,0,202.0,0,1024.0,0,1024.0
1,564575197,9,9.0,198,198.0,198,1024.0
2,564695118,0,0.0,0,0.0,198,1024.0
3,564924382,0,0.0,0,0.0,198,1024.0
4,565044116,0,0.0,0,0.0,198,1024.0
5,565146023,0,0.0,0,0.0,198,1024.0
6,565272613,0,0.0,0,0.0,198,1024.0
7,565493509,0,0.0,0,0.0,198,1024.0
8,565700565,0,0.0,0,0.0,198,1024.0
9,565808277,0,0.0,0,0.0,198,1024.0
10,565961908,0,0.0,0,0.0,198,1024.0
11,568065821,0,0.0,0,0.0,198,1024.0
12,570188203,0,0.0,0,0.0,198,1024.0
13,570282699,0,0.0,0,0.0,198,1024.0
14,570574748,0,0.0,0,0.0,198,1024.0
