i, max output cc, min l_i, med l_i, min s_i, med s_i, min kappa_i, med kappa_i
0,1968791,0,2.0,0,10.0,0,10.0
1,3842151,2,2.0,5,5.0,9,10.0
2,6351766,2,2.0,1,5.0,9,10.0
3,8761571,2,2.0,1,1.0,9,10.0
4,10882340,2,2.0,1,1.5,9,10.0
5,12783923,2,2.0,0,2.0,9,10.0
6,14814794,2,2.0,0,1.0,9,10.0
7,16699146,1,2.0,0,9.0,10,10.0
8,17762081,0,2.0,0,8.0,10,10.0
9,19012474,0,0.0,0,0.0,10,10.0
