i, max output cc, min l_i, med l_i, min s_i, med s_i, min kappa_i, med kappa_i
0,-1,0,0.0,0,0.0,0,0.0
1,394392302,9,9.0,0,0.0,0,0.0
2,427480788,65,70.0,0,0.0,0,0.0
3,428102322,0,0.0,0,0.0,0,0.0
4,428117451,0,0.0,0,0.0,0,0.0
5,5095394670,260,297.0,0,264.0,0,264.0
6,5457441510,5,8.0,0,120.0,0,264.0
7,5457542583,0,2.0,0,0.0,0,264.0
8,5576725811,0,6.0,0,144.0,0,408.0
9,5581776801,0,3.0,0,45.0,0,504.0
10,5586107898,0,1.0,0,24.0,0,528.0
11,5590105985,0,1.0,0,24.0,0,552.0
12,5594361951,0,1.0,0,24.0,0,552.0
13,5598377815,0,1.0,0,24.0,0,552.0
14,5601971687,0,1.0,0,24.0,0,552.0
