System clock before reset:  3/20/2014 4:06:14 PM
Cycle counter before reset: 18824523610151154

System clock at wakeup:   3/20/2014 4:06:19 PM
Cycle counter at wakeup:  19050622291549824

random: 9CD27AA740630F9FB6283FA8251BD204FD997653E5213736594DF64B58032AEB, cycles
: 19050622305011104
random: AD88C092EF0C0E52D5F4A6C42C784314C265943777C325F4CBFD6C0CE3F6394C, cycles
: 19050625816405734
random: 8079ADFB8CAF99069447A9FA58E6DA29A7AEB2307CBAF6E1C8D90A593E41D38D, cycles
: 19050629163803750
random: 16A69C04ADFF7C13BA640C632042A0AEDDE2117952684F88B15A461A5F0186DE, cycles
: 19050632607880986
random: 1DDC54B2D4FAE0D719B47BEDC4F2B39768C1380D79C2231DA2966F0DAE9E64C0, cycles
: 19050636000089830
random: 4D428F24D841DB1F104BAF00345D23DC18DB5E642BC294B536DEEFBB37D78882, cycles
: 19050639392082704
random: 1DCE55A7C0A9CD65052A193838D9453327CC605E8D313051FC0791C493BD1E06, cycles
: 19050642784523224
random: C33BE04324F7EB900E8DEE5E17ADFD4475FB5BEA9B124A9B6A81ACF080415D55, cycles
: 19050646176689472
random: D0DEC7A5C61EA3AC8D4056F9F1F7FA4D7A6CF38BD1978E4458803A6A178CF107, cycles
: 19050649569026796
random: 74259846FD419D7DDD6906748B6BD7519D5D7DF69A3DA2040ADC4F7034BA6C14, cycles
: 19050652961391700
random: EBDAB1114521AEA82015E77CEB6689088BDB8856753D53E5299527ECD99F30A1, cycles
: 19050656353699558
random: 89B9E15F4FE5376625E287A0675093EB633FAFC98C8545A0A49D40119A42C78E, cycles
: 19050659745702732
random: A79C5E5A5756CC2AD4EAEB4AD6A122015C844FC317840B366EA372C10882D4E3, cycles
: 19050663138199184
random: 6E5DFCDE4695EDA44C6BD800A984EE34C7D473FEA9A98210C41FB84DB3AB0F04, cycles
: 19050666556581884
random: BFC66CD8C07619B4B9EECE8B4F4E10E51CFA7D4DB200F6ADB7EF624CD60121EF, cycles
: 19050669949239160
random: 193D2C3864777B0F6F1BDB31E1946D59C0544225C7E2C83E5274CD0668E5514C, cycles
: 19050673341137634
random: F0F5B28849C9870F0C950810AB7D87E84B42B28E5FF54B55BC0CDCD7D097FC3A, cycles
: 19050676733540164
random: 319619982638B7EA879C3E893904D86C5796BF5DB319D68D9721A9866494E46E, cycles
: 19050680125926866
random: 37E77EC2E0CBA4AB9CC33E56266490C7EB07D42D9BC598BDFD7F16AFF7F85935, cycles
: 19050683517981412
random: 5D84030DCCFE14E6C2C2696897FF028FE9A1667BE3CF87F2B5F210F715CF4414, cycles
: 19050686910189890
random: 09AA02A3A657FE69E0018119C709D2B02C0AD35088E209051EDB907EB78AB184, cycles
: 19050690302458836
random: 3172B5141E39DE3931474A95AC4CA6651DFA2C240802AF94AA479851A9FFA2E7, cycles
: 19050693694762156
random: 25CC146034B33A8BD5B019D9DE079160E77D0698C190E4D9A75B4D1E2E53EE49, cycles
: 19050697087096074
random: FF3675BA243BA1640BC84449C4B0E0B99029009F1997C79C9A58C27E1D007C29, cycles
: 19050700479403244
random: F4F3A5C47C2E4E32AE227DDA8000D5F6CA8D5E47B026659BACFE8217EB8BFF91, cycles
: 19050703871513964
random: 50723C785699866EF9D484A25397621341AF2039D90E44D4ED84934F62DEFD04, cycles
: 19050707263857418
random: A0033B93C7CA713BE472CDDC1ABABFF602EDD7F1AA493962AC3A0849F6B24C90, cycles
: 19050710655773380
random: 6D1B3703CDDFE21E81BCBE120FF41DDB358D4454DE5C3A5D1A4D664E48CC90FE, cycles
: 19050714048443410
random: 34BF87AF7D1DA6546F7A6D78E805A3AD908507F69BD6979F0781FFEF07E7F621, cycles
: 19050717442398238
random: E665338DB951894ADBBC4ECB0DA53EC510B96C5A4A5BA01EDD8AF124A6CCC35E, cycles
: 19050720833104336

