System clock before reset:  3/20/2014 3:32:13 PM
Cycle counter before reset: 18817599657032698

System clock at wakeup:   3/20/2014 3:32:18 PM
Cycle counter at wakeup:  18818862392892952

random: 40BBC82F6C400A9481DF7DF5F9935574983E24A41BDADFB05B8E32B1F5DF86A8, cycles
: 18818862399906488
random: 0D42D05887D1996F285376526DE4EB19243AB6CE45E408FBE336C77CA8F4A81E, cycles
: 18818865751845946
random: 094E6B4121B2A8E85055D324695E8BC25C4A30B17607CF0AC45FCC007DBB4F77, cycles
: 18818869144117550
random: A44EB4DFA61B10500598984DBCDD600CF41E3622582A63E5F1773272279BE538, cycles
: 18818872536378044
random: E5DCE2EC02502BDDD064E33F0ED5C349D676E73983BBF9EE82B1F98A27907DA2, cycles
: 18818875928993812
random: 04FA43CE28A565AE913A6BAB1D68E777AA5F159CF7E627DCAEBF363BB13FA556, cycles
: 18818879321103876
random: 32E60B88FB79EFF2A7D78A7BB8A92386C0C359722FA8361F0DEE36BED0FB9095, cycles
: 18818882713477702
random: DADEBBA37BA07956FFB906F21008CD60D4D065C82A887FCB8129361BCB69B71B, cycles
: 18818886105590152
random: 090642F540A8EB53F76BF4A719F35B372767A9EFFDF255C7B9DB92F7674F82F4, cycles
: 18818889497869316
random: 9B957A29DF36D54FCEAC9FE50FFB2E68FDB1A4532A7DCB4D75264B88064BCC04, cycles
: 18818892890186154
random: 9BE7F5D982D2CFF1C3E97ECF8EE06B10219B219B15ABA0B36A173EB215764E0D, cycles
: 18818896282461520
random: 3F4BFA107C900145B752BFC5DC2E2CC48F7C95F5B481B1EC232AC640575CFB93, cycles
: 18818899674894824
random: 664236C2AC2EAC02808BA2F8ACF8C4351BF0B84EB3543845846035FB43B25A54, cycles
: 18818903066931544
random: F363A35EE11E2DFE147B1F8745AC900C76127E18A750CAC50172904A2E349A78, cycles
: 18818906491368546
random: 978C4F537E63E648DE0DEA20511741089399323270F8F3641C6CE157B3273360, cycles
: 18818909883491988
random: B5768ACC09CA539181057982878146B48F5CE7FDC439989C89AC0EA67C8BB2D3, cycles
: 18818913275867202
random: 74532B1ACF236BDF72DD25B80700626381C5707E78960EB358186D2A678BD1AF, cycles
: 18818916668141880
random: 14DA8F88061543F6B75E45AF0DEAA9C5DB853B6FAA50A97DDF4940541DE1510F, cycles
: 18818920060406688
random: 8FC1AB367200904630E63E943DC24CFB86216B77219909ABD5AB7A0E66F2747F, cycles
: 18818923452576276
random: 2A2A14E1566D65C307E6CA0261154578ACAD7E59DDC2F09772C601E8A9089763, cycles
: 18818926844872398
random: F5C955DD273F89736094223A81CD2936B841461F268312912CEE6509F1BD68ED, cycles
: 18818930237139476
random: 755F7D6B04A38214DC8C6F4889D85262C095EDFFC39D994D1AF8A01722F0AA2D, cycles
: 18818933629418804
random: EB4A87F51C2567A93FF869CD713D9D454ACF8691DFBA071E18DF7AF311BE7F0E, cycles
: 18818937021701720
random: 9A3BA8899E65404DDB41BE9F50295B892EAF9D9FDF26D410EC2E6908A8E6E9E1, cycles
: 18818940413891704
random: 9510E6ED4EEF734275B78FCE1C611B751F5B26C7C1BE614DF4BFC9F7A14B4CB3, cycles
: 18818943806222172
random: 5AC9E3556D9C8E0E8A45A2E29602C28DC03BF6C0073A75565605BD8D8DA73841, cycles
: 18818947198361208
random: 9A6D19F47435A57CB3E6CE9E4A682CF4675E1E5D4B0C78E00EBAA7D1706A573B, cycles
: 18818950590803596
random: D3753438E5FDA05FBB0096690669FBADFE2EF72D4B23B9D70DEA6D825A8D6CED, cycles
: 18818953983271428
random: D8B8E0B88A5A6DA4591ABD045D32B5BEF9FC8EF8FE190F0608BCE0083B57BC5E, cycles
: 18818957375366892
random: CFF694B24F85613985E9DC4E3A60615F70C65F9849C2B3716F19639B2EF109F2, cycles
: 18818960767751072

