Linux sc2-vm-2 3.5.7.11+ #14 SMP Fri May 10 20:17:58 CDT 2013 x86_64 x86_64 x86_64 GNU/Linux
System clock before reset:  Fri Sep 20 14:52:41 2013
Cycle counter before reset: 211548409285

System clock at wakeup:   Fri Sep 20 14:52:41 2013
Cycle counter at wakeup:  224855695153
Input pool entropy count: 156
LOG:rand_unix.c:RAND_poll
LOG:rand_unix.c:Reading 32 bytes from /dev/urandom
LOG:rand_unix.c:tmpbuf:688058812:1055742592:4161442079:968270661:1702345457:367187416:2689789684:544295496
LOG:rand_unix.c:curr_pid: 1100
LOG:rand_unix.c:getuid()=1002
LOG:rand_unix.c:time(NULL)=1379706761
LOG:rsa_gen.c:Generating RSA prime p
LOG:bn_prime.c:
LOG:bn_prime.c:Selecting random value
LOG:bn_rand.c:tim: 1379706761
LOG:bn_rand.c:buf:0:0:0:0:0:0:0:0:0:0:0:0:0:0:0:0
LOG:md_rand.c:curr_pid: 1100
LOG:bn_rand.c:tim: 1379706761
LOG:bn_rand.c:buf:0:0:0:0:0:0:0:0:0:0:0:0:0:0:0:0
LOG:md_rand.c:curr_pid: 1100
LOG:bn_prime.c:
LOG:bn_prime.c:Selecting random value
LOG:bn_rand.c:tim: 1379706761
LOG:bn_rand.c:buf:10236336:0:831106946:3482110208:262548278:2391565105:3172692652:2650797193:1404207598:3739210277:3406215606:3016262872:3333706027:970195906:29768321:3761152208
LOG:md_rand.c:curr_pid: 1100
LOG:bn_rand.c:tim: 1379706761
LOG:bn_rand.c:buf:0:0:520663414:3352684203:1009995827:1888896219:1679690929:2298853279:3515569670:1021751870:1829089131:1623116993:3852417352:1819075276:1320927251:2671281771
LOG:md_rand.c:curr_pid: 1100
LOG:bn_prime.c:
LOG:bn_prime.c:Selecting random value
LOG:bn_rand.c:tim: 1379706761
LOG:bn_rand.c:buf:10236336:0:3544118740:1150742614:2930565409:411854189:1602808769:4101517816:1420375604:846771358:1927529930:3898412505:2364868432:788401905:325535037:3696776684
LOG:md_rand.c:curr_pid: 1100
LOG:bn_rand.c:tim: 1379706761
LOG:bn_rand.c:buf:0:0:0:0:0:0:0:0:0:0:0:0:0:0:0:0
LOG:md_rand.c:curr_pid: 1100
LOG:bn_prime.c:
LOG:bn_prime.c:Selecting random value
LOG:bn_rand.c:tim: 1379706761
LOG:bn_rand.c:buf:10236336:0:3059375221:3745472949:1894790285:3446888236:2635956383:3386915533:1839978774:1055625605:735487159:2546862537:3949789701:1573817245:3688777182:3829971267
LOG:md_rand.c:curr_pid: 1100
LOG:bn_rand.c:tim: 1379706761
LOG:bn_rand.c:buf:0:0:0:0:0:0:0:0:0:0:0:0:0:0:0:0
LOG:md_rand.c:curr_pid: 1100
LOG:bn_prime.c:
LOG:bn_prime.c:Selecting random value
LOG:bn_rand.c:tim: 1379706761
LOG:bn_rand.c:buf:10234608:0:3571125116:2444261389:3080850213:711408103:322680859:3135204471:1357764426:2690094509:1226648970:1470464724:525966216:1636547888:4231814650:3572975557
LOG:md_rand.c:curr_pid: 1100
LOG:bn_rand.c:tim: 1379706761
LOG:bn_rand.c:buf:10236336:0:544320200:1608488766:3727573499:3506459026:260805422:1860169672:838848237:2876222554:4021911862:4254873848:2249448249:3213504622:1200563033:1588704606
LOG:md_rand.c:curr_pid: 1100
LOG:bn_prime.c:
LOG:bn_prime.c:Selecting random value
LOG:bn_rand.c:tim: 1379706761
LOG:bn_rand.c:buf:10234608:0:2931798998:4237786680:3991902043:2288587638:82934352:603233343:316850474:369089463:2139848885:1876363890:2244673146:1259231797:2178040458:4138027616
LOG:md_rand.c:curr_pid: 1100
LOG:bn_rand.c:tim: 1379706761
LOG:bn_rand.c:buf:10236336:0:0:0:0:0:0:0:0:0:0:0:0:0:0:0
LOG:md_rand.c:curr_pid: 1100
LOG:bn_rand.c:tim: 1379706761
LOG:bn_rand.c:buf:10236336:0:0:0:0:0:0:0:0:0:0:0:0:0:0:0
LOG:md_rand.c:curr_pid: 1100
LOG:bn_prime.c:
LOG:bn_prime.c:Selecting random value
LOG:bn_rand.c:tim: 1379706761
LOG:bn_rand.c:buf:10234608:0:2118857510:3324548243:4051299783:243357028:2447571425:2952823856:1305531782:3248459560:1075630971:3808257107:851984373:2175289293:3745399778:3487109331
LOG:md_rand.c:curr_pid: 1100
LOG:bn_rand.c:tim: 1379706761
LOG:bn_rand.c:buf:10236336:0:0:0:0:0:0:0:0:0:0:0:0:0:0:0
LOG:md_rand.c:curr_pid: 1100
LOG:bn_prime.c:
LOG:bn_prime.c:Selecting random value
LOG:bn_rand.c:tim: 1379706761
LOG:bn_rand.c:buf:10234608:0:3496557149:1051227125:3288669941:3007624057:3863896993:606042970:1740869560:2773040304:1746012926:323807450:3109262662:989718261:2632185413:3482749008
LOG:md_rand.c:curr_pid: 1100
LOG:bn_rand.c:tim: 1379706761
LOG:bn_rand.c:buf:10236336:0:0:0:0:0:0:0:0:0:0:0:0:0:0:0
LOG:md_rand.c:curr_pid: 1100
LOG:bn_prime.c:
LOG:bn_prime.c:Selecting random value
LOG:bn_rand.c:tim: 1379706761
LOG:bn_rand.c:buf:10234608:0:3485952043:1027848617:3826709940:3814319497:1490770215:22058300:4194992864:2519260678:4023109632:2908652823:686781861:3066593387:3099806634:4097781534
LOG:md_rand.c:curr_pid: 1100
LOG:bn_rand.c:tim: 1379706761
LOG:bn_rand.c:buf:10236336:0:0:0:0:0:0:0:0:0:0:0:0:0:0:0
LOG:md_rand.c:curr_pid: 1100
LOG:bn_prime.c:
LOG:bn_prime.c:Selecting random value
LOG:bn_rand.c:tim: 1379706761
LOG:bn_rand.c:buf:10234608:0:1496702273:582784053:2899087671:3913723651:3566054877:2829796284:881479041:1174450667:2149419683:3939939479:169955830:3365554290:2421345553:3444600519
LOG:md_rand.c:curr_pid: 1100
LOG:bn_rand.c:tim: 1379706761
LOG:bn_rand.c:buf:10236336:0:0:0:0:0:0:0:0:0:0:0:0:0:0:0
LOG:md_rand.c:curr_pid: 1100
LOG:bn_prime.c:
LOG:bn_prime.c:Selecting random value
LOG:bn_rand.c:tim: 1379706761
LOG:bn_rand.c:buf:10234608:0:2260626527:84491957:1690472586:3664961842:4174014375:1610705013:2107372195:1431544530:988930698:884568756:2259516297:323800866:2097705137:3562731380
LOG:md_rand.c:curr_pid: 1100
LOG:bn_rand.c:tim: 1379706761
LOG:bn_rand.c:buf:10236336:0:0:0:0:0:0:0:0:0:0:0:0:0:0:0
LOG:md_rand.c:curr_pid: 1100
LOG:bn_prime.c:
LOG:bn_prime.c:Selecting random value
LOG:bn_rand.c:tim: 1379706761
LOG:bn_rand.c:buf:10234608:0:822429884:3825519595:1640753105:3463675404:3391167734:1425985340:2849673693:352016926:2359107178:3315402271:4154432087:306096057:3954273819:4194370294
LOG:md_rand.c:curr_pid: 1100
LOG:bn_rand.c:tim: 1379706761
LOG:bn_rand.c:buf:10236336:0:0:0:0:0:0:0:0:0:0:0:0:0:0:0
LOG:md_rand.c:curr_pid: 1100
LOG:bn_prime.c:
LOG:bn_prime.c:Selecting random value
LOG:bn_rand.c:tim: 1379706761
LOG:bn_rand.c:buf:10234608:0:2890972648:3362431857:2957964036:2097579874:2776398749:3422845141:3524590411:838360664:3239098672:2364459410:1572768611:3099990332:3022851459:4185696965
LOG:md_rand.c:curr_pid: 1100
LOG:bn_rand.c:tim: 1379706761
LOG:bn_rand.c:buf:10236336:0:0:0:0:0:0:0:0:0:0:0:0:0:0:0
LOG:md_rand.c:curr_pid: 1100
LOG:bn_rand.c:tim: 1379706761
LOG:bn_rand.c:buf:10236336:0:0:0:0:0:0:0:0:0:0:0:0:0:0:0
LOG:md_rand.c:curr_pid: 1100
LOG:bn_rand.c:tim: 1379706761
LOG:bn_rand.c:buf:10236336:0:0:0:0:0:0:0:0:0:0:0:0:0:0:0
LOG:md_rand.c:curr_pid: 1100
LOG:bn_prime.c:
LOG:bn_prime.c:Selecting random value
LOG:bn_rand.c:tim: 1379706761
LOG:bn_rand.c:buf:10234608:0:876931364:3196431926:2247530479:1114922252:619723403:3750578169:26084505:1565882546:3374338293:1724541488:471498873:1908032081:2621222103:3271888429
LOG:md_rand.c:curr_pid: 1100
LOG:bn_rand.c:tim: 1379706761
LOG:bn_rand.c:buf:10236336:0:0:0:0:0:0:0:0:0:0:0:0:0:0:0
LOG:md_rand.c:curr_pid: 1100
LOG:bn_prime.c:
LOG:bn_prime.c:Selecting random value
LOG:bn_rand.c:tim: 1379706761
LOG:bn_rand.c:buf:10234608:0:711095063:2990539743:169090872:1923452940:4131230471:3613550532:929635202:1657192829:1013581850:2827377360:3633118075:609922747:929588520:3849326147
LOG:md_rand.c:curr_pid: 1100
LOG:bn_rand.c:tim: 1379706761
LOG:bn_rand.c:buf:10236336:0:0:0:0:0:0:0:0:0:0:0:0:0:0:0
LOG:md_rand.c:curr_pid: 1100
LOG:bn_prime.c:
LOG:bn_prime.c:Selecting random value
LOG:bn_rand.c:tim: 1379706761
LOG:bn_rand.c:buf:10234608:0:3553178412:933026430:2519296812:771530644:902247974:3200273404:1855017425:3087000564:2416224099:1433561438:1366050595:3820558690:1542349816:3826566424
LOG:md_rand.c:curr_pid: 1100
LOG:bn_rand.c:tim: 1379706761
LOG:bn_rand.c:buf:10236336:0:0:0:0:0:0:0:0:0:0:0:0:0:0:0
LOG:md_rand.c:curr_pid: 1100
LOG:bn_prime.c:
LOG:bn_prime.c:Selecting random value
LOG:bn_rand.c:tim: 1379706761
LOG:bn_rand.c:buf:10234608:0:4245733513:825013030:3257163231:3673758242:516098819:3714702505:53730759:46281250:159721179:864990780:2269362324:515950264:80582061:3286060243
LOG:md_rand.c:curr_pid: 1100
LOG:bn_rand.c:tim: 1379706761
LOG:bn_rand.c:buf:10236336:0:0:0:0:0:0:0:0:0:0:0:0:0:0:0
LOG:md_rand.c:curr_pid: 1100
LOG:bn_rand.c:tim: 1379706761
LOG:bn_rand.c:buf:10236336:0:0:0:0:0:0:0:0:0:0:0:0:0:0:0
LOG:md_rand.c:curr_pid: 1100
LOG:bn_prime.c:
LOG:bn_prime.c:Selecting random value
LOG:bn_rand.c:tim: 1379706761
LOG:bn_rand.c:buf:10234608:0:1996192451:2347702394:235398034:434626115:3764897028:429827721:1287330782:1356211490:4273905218:2118944473:979133473:3175653248:1426657332:3699542455
LOG:md_rand.c:curr_pid: 1100
LOG:bn_rand.c:tim: 1379706761
LOG:bn_rand.c:buf:10236336:0:0:0:0:0:0:0:0:0:0:0:0:0:0:0
LOG:md_rand.c:curr_pid: 1100
LOG:bn_prime.c:
LOG:bn_prime.c:Selecting random value
LOG:bn_rand.c:tim: 1379706761
LOG:bn_rand.c:buf:10234608:0:4001615514:4086602334:4108038260:2708522307:1120800800:201271157:1603408224:247177432:821247425:3954993702:3606784760:2531606242:3297185612:3683218111
LOG:md_rand.c:curr_pid: 1100
LOG:bn_rand.c:tim: 1379706761
LOG:bn_rand.c:buf:10236336:0:0:0:0:0:0:0:0:0:0:0:0:0:0:0
LOG:md_rand.c:curr_pid: 1100
LOG:bn_prime.c:
LOG:bn_prime.c:Selecting random value
LOG:bn_rand.c:tim: 1379706761
LOG:bn_rand.c:buf:10234608:0:3023229002:595916751:946327831:2541535396:3586639561:3344898603:1318147843:1322957981:1635758649:3775512593:3866619535:2072722043:3560677044:3444449010
LOG:md_rand.c:curr_pid: 1100
LOG:bn_rand.c:tim: 1379706761
LOG:bn_rand.c:buf:10236336:0:0:0:0:0:0:0:0:0:0:0:0:0:0:0
LOG:md_rand.c:curr_pid: 1100
LOG:bn_prime.c:
LOG:bn_prime.c:Selecting random value
LOG:bn_rand.c:tim: 1379706761
LOG:bn_rand.c:buf:10234608:0:3879710427:4228363631:1649378186:1442743155:2727741599:1262262038:84716593:2762153723:935566127:1225939814:2199554887:300346151:247038359:3224040142
LOG:md_rand.c:curr_pid: 1100
LOG:bn_rand.c:tim: 1379706761
LOG:bn_rand.c:buf:10236336:0:0:0:0:0:0:0:0:0:0:0:0:0:0:0
LOG:md_rand.c:curr_pid: 1100
LOG:bn_prime.c:
LOG:bn_prime.c:Selecting random value
LOG:bn_rand.c:tim: 1379706761
LOG:bn_rand.c:buf:10234608:0:3729276960:4077882628:4181808391:4206169708:203219059:3740769231:1606135123:3360656131:3867841141:1806431206:2403945990:1197056790:432042482:3372139233
LOG:md_rand.c:curr_pid: 1100
LOG:bn_rand.c:tim: 1379706761
LOG:bn_rand.c:buf:10236336:0:0:0:0:0:0:0:0:0:0:0:0:0:0:0
LOG:md_rand.c:curr_pid: 1100
LOG:bn_prime.c:
LOG:bn_prime.c:Selecting random value
LOG:bn_rand.c:tim: 1379706761
LOG:bn_rand.c:buf:10234608:0:1276055393:3716664591:1253128607:3172065433:4232543437:259234515:3711093534:3298657913:4078877763:1090711953:4289380880:2708441002:2813243253:3871509708
LOG:md_rand.c:curr_pid: 1100
LOG:bn_rand.c:tim: 1379706761
LOG:bn_rand.c:buf:10236336:0:0:0:0:0:0:0:0:0:0:0:0:0:0:0
LOG:md_rand.c:curr_pid: 1100
LOG:bn_prime.c:
LOG:bn_prime.c:Selecting random value
LOG:bn_rand.c:tim: 1379706761
LOG:bn_rand.c:buf:10234608:0:3317719741:3498165954:3885764307:3279482544:3957636388:459853139:1145293548:2256653746:1816710685:2740368441:821865882:163851490:1967264392:3664082329
LOG:md_rand.c:curr_pid: 1100
LOG:bn_rand.c:tim: 1379706761
LOG:bn_rand.c:buf:10236336:0:0:0:0:0:0:0:0:0:0:0:0:0:0:0
LOG:md_rand.c:curr_pid: 1100
LOG:bn_prime.c:
LOG:bn_prime.c:Selecting random value
LOG:bn_rand.c:tim: 1379706761
LOG:bn_rand.c:buf:10234608:0:4116801521:1759357259:3083009024:244724377:862114629:2657459811:746374423:1966615552:952588371:3615869638:1862719185:3764886549:3503716187:3242562732
LOG:md_rand.c:curr_pid: 1100
LOG:bn_rand.c:tim: 1379706761
LOG:bn_rand.c:buf:10236336:0:0:0:0:0:0:0:0:0:0:0:0:0:0:0
LOG:md_rand.c:curr_pid: 1100
LOG:bn_rand.c:tim: 1379706761
LOG:bn_rand.c:buf:10236336:0:0:0:0:0:0:0:0:0:0:0:0:0:0:0
LOG:md_rand.c:curr_pid: 1100
LOG:bn_rand.c:tim: 1379706761
LOG:bn_rand.c:buf:10236336:0:0:0:0:0:0:0:0:0:0:0:0:0:0:0
LOG:md_rand.c:curr_pid: 1100
LOG:bn_prime.c:
LOG:bn_prime.c:Selecting random value
LOG:bn_rand.c:tim: 1379706761
LOG:bn_rand.c:buf:10234608:0:2124132926:3732058595:3524252256:3123950426:923927627:2758715022:4165449975:2012610114:379202870:1414570652:1298930998:3465021616:3184055582:3551381313
LOG:md_rand.c:curr_pid: 1100
LOG:bn_rand.c:tim: 1379706761
LOG:bn_rand.c:buf:10236336:0:0:0:0:0:0:0:0:0:0:0:0:0:0:0
LOG:md_rand.c:curr_pid: 1100
LOG:bn_prime.c:
LOG:bn_prime.c:Selecting random value
LOG:bn_rand.c:tim: 1379706761
LOG:bn_rand.c:buf:10234608:0:1066586775:2619211616:3474654706:3274526028:1066100182:4135366045:2748809745:2514895737:2998351155:2115520808:1914490771:277160440:2069343316:4270544419
LOG:md_rand.c:curr_pid: 1100
LOG:bn_rand.c:tim: 1379706761
LOG:bn_rand.c:buf:10236336:0:0:0:0:0:0:0:0:0:0:0:0:0:0:0
LOG:md_rand.c:curr_pid: 1100
LOG:bn_prime.c:
LOG:bn_prime.c:Selecting random value
LOG:bn_rand.c:tim: 1379706761
LOG:bn_rand.c:buf:10234608:0:2418492415:4085672863:3837675809:1494240398:3056459401:2079269235:1270546760:1121950293:1434461371:1357675151:2013031151:3656584756:3862711739:3915330884
LOG:md_rand.c:curr_pid: 1100
LOG:bn_rand.c:tim: 1379706761
LOG:bn_rand.c:buf:10236336:0:0:0:0:0:0:0:0:0:0:0:0:0:0:0
LOG:md_rand.c:curr_pid: 1100
LOG:bn_prime.c:
LOG:bn_prime.c:Selecting random value
LOG:bn_rand.c:tim: 1379706761
LOG:bn_rand.c:buf:10234608:0:1393931910:914491630:2668576991:2893202417:1867588213:1814928120:1795708014:2670451928:737766535:2909438372:3774034065:1954795449:4249039707:4220543942
LOG:md_rand.c:curr_pid: 1100
LOG:bn_rand.c:tim: 1379706761
LOG:bn_rand.c:buf:10236336:0:0:0:0:0:0:0:0:0:0:0:0:0:0:0
LOG:md_rand.c:curr_pid: 1100
LOG:bn_prime.c:
LOG:bn_prime.c:Selecting random value
LOG:bn_rand.c:tim: 1379706761
LOG:bn_rand.c:buf:10234608:0:767594226:3617246015:1784370762:3503319957:4055471815:520425870:692240511:2911396476:2427392290:1079040486:3389555986:399357100:1313546466:3975002724
LOG:md_rand.c:curr_pid: 1100
LOG:bn_rand.c:tim: 1379706761
LOG:bn_rand.c:buf:10236336:0:0:0:0:0:0:0:0:0:0:0:0:0:0:0
LOG:md_rand.c:curr_pid: 1100
LOG:bn_prime.c:
LOG:bn_prime.c:Selecting random value
LOG:bn_rand.c:tim: 1379706761
LOG:bn_rand.c:buf:10234608:0:4140287318:2597483289:1983848440:2095584858:3941705183:698356796:4269220499:2463263721:388206855:4113778706:1378862125:1048027625:1591502194:3514955218
LOG:md_rand.c:curr_pid: 1100
LOG:bn_rand.c:tim: 1379706761
LOG:bn_rand.c:buf:10236336:0:0:0:0:0:0:0:0:0:0:0:0:0:0:0
LOG:md_rand.c:curr_pid: 1100
LOG:bn_prime.c:
LOG:bn_prime.c:Selecting random value
LOG:bn_rand.c:tim: 1379706761
LOG:bn_rand.c:buf:10234608:0:3000804550:1522976700:1840427917:4016247816:2614759995:1856289338:3806607151:758625654:4254641398:3865606679:41832648:3460682803:656472083:3713369453
LOG:md_rand.c:curr_pid: 1100
LOG:bn_rand.c:tim: 1379706761
LOG:bn_rand.c:buf:10236336:0:0:0:0:0:0:0:0:0:0:0:0:0:0:0
LOG:md_rand.c:curr_pid: 1100
LOG:bn_prime.c:
LOG:bn_prime.c:Selecting random value
LOG:bn_rand.c:tim: 1379706761
LOG:bn_rand.c:buf:10234608:0:120320934:453927543:1261241156:1620651967:2414217149:1331238808:821926986:2530168967:124417795:1028700017:2893470402:4141227194:413687301:3622184535
LOG:md_rand.c:curr_pid: 1100
LOG:bn_rand.c:tim: 1379706761
LOG:bn_rand.c:buf:10236336:0:0:0:0:0:0:0:0:0:0:0:0:0:0:0
LOG:md_rand.c:curr_pid: 1100
LOG:bn_rand.c:tim: 1379706761
LOG:bn_rand.c:buf:10236336:0:0:0:0:0:0:0:0:0:0:0:0:0:0:0
LOG:md_rand.c:curr_pid: 1100
LOG:bn_rand.c:tim: 1379706761
LOG:bn_rand.c:buf:10236336:0:0:0:0:0:0:0:0:0:0:0:0:0:0:0
LOG:md_rand.c:curr_pid: 1100
LOG:bn_rand.c:tim: 1379706761
LOG:bn_rand.c:buf:10236336:0:0:0:0:0:0:0:0:0:0:0:0:0:0:0
LOG:md_rand.c:curr_pid: 1100
LOG:bn_rand.c:tim: 1379706761
LOG:bn_rand.c:buf:10236336:0:0:0:0:0:0:0:0:0:0:0:0:0:0:0
LOG:md_rand.c:curr_pid: 1100
LOG:bn_prime.c:
LOG:bn_prime.c:Selecting random value
LOG:bn_rand.c:tim: 1379706761
LOG:bn_rand.c:buf:10234608:0:2991771421:388393810:776169775:735157335:2309787469:334550309:2561456712:3842551880:58288745:3819982518:2392332167:2335542238:1694503881:3258059310
LOG:md_rand.c:curr_pid: 1100
LOG:bn_rand.c:tim: 1379706761
LOG:bn_rand.c:buf:10236336:0:0:0:0:0:0:0:0:0:0:0:0:0:0:0
LOG:md_rand.c:curr_pid: 1100
LOG:bn_prime.c:
LOG:bn_prime.c:Selecting random value
LOG:bn_rand.c:tim: 1379706761
LOG:bn_rand.c:buf:10234608:0:3484572724:2280328955:2328581357:1424707128:2853402539:2942739043:3990564681:2773014471:324197695:2125849282:543355090:2904158428:3806555858:4097558495
LOG:md_rand.c:curr_pid: 1100
LOG:bn_rand.c:tim: 1379706761
LOG:bn_rand.c:buf:10236336:0:0:0:0:0:0:0:0:0:0:0:0:0:0:0
LOG:md_rand.c:curr_pid: 1100
LOG:bn_prime.c:
LOG:bn_prime.c:Selecting random value
LOG:bn_rand.c:tim: 1379706761
LOG:bn_rand.c:buf:10234608:0:259763289:3112420772:1979306236:2848875078:3260251197:2420296558:2166006151:3523366435:2940506899:2349195158:3051703002:4173433382:2052384295:4089620893
LOG:md_rand.c:curr_pid: 1100
LOG:bn_rand.c:tim: 1379706761
LOG:bn_rand.c:buf:10236336:0:0:0:0:0:0:0:0:0:0:0:0:0:0:0
LOG:md_rand.c:curr_pid: 1100
LOG:bn_prime.c:
LOG:bn_prime.c:Selecting random value
LOG:bn_rand.c:tim: 1379706761
LOG:bn_rand.c:buf:10234608:0:299537850:2002102379:3715575940:2447683943:161395846:3617255724:724000090:789094851:2364688768:3784207729:4225638321:3396703689:3822038648:3730056237
LOG:md_rand.c:curr_pid: 1100
LOG:bn_rand.c:tim: 1379706761
LOG:bn_rand.c:buf:10236336:0:0:0:0:0:0:0:0:0:0:0:0:0:0:0
LOG:md_rand.c:curr_pid: 1100
LOG:bn_prime.c:
LOG:bn_prime.c:Selecting random value
LOG:bn_rand.c:tim: 1379706761
LOG:bn_rand.c:buf:10234608:0:152126887:878237024:3016041806:3476306624:1838848391:1485103463:3374495522:1258416249:265285735:2709949986:399503678:1632088248:708283747:3808584729
LOG:md_rand.c:curr_pid: 1100
LOG:bn_rand.c:tim: 1379706761
LOG:bn_rand.c:buf:10236336:0:0:0:0:0:0:0:0:0:0:0:0:0:0:0
LOG:md_rand.c:curr_pid: 1100
LOG:bn_rand.c:tim: 1379706761
LOG:bn_rand.c:buf:10236336:0:0:0:0:0:0:0:0:0:0:0:0:0:0:0
LOG:md_rand.c:curr_pid: 1100
LOG:bn_prime.c:
LOG:bn_prime.c:Selecting random value
LOG:bn_rand.c:tim: 1379706761
LOG:bn_rand.c:buf:10234608:0:4184344144:3596327085:4005285392:2650782916:3382538460:1315088408:526966351:3596497164:277808618:1933890615:2241157254:2369395664:3456215429:3361303969
LOG:md_rand.c:curr_pid: 1100
LOG:bn_rand.c:tim: 1379706761
LOG:bn_rand.c:buf:10236336:0:0:0:0:0:0:0:0:0:0:0:0:0:0:0
LOG:md_rand.c:curr_pid: 1100
LOG:bn_prime.c:
LOG:bn_prime.c:Selecting random value
LOG:bn_rand.c:tim: 1379706761
LOG:bn_rand.c:buf:10234608:0:1384237559:1867369921:4154323277:3838904271:3650811832:3775857758:1048444408:3993954869:1313112060:202459812:3719637374:913247867:1297947853:3552682326
LOG:md_rand.c:curr_pid: 1100
LOG:bn_rand.c:tim: 1379706761
LOG:bn_rand.c:buf:10236336:0:0:0:0:0:0:0:0:0:0:0:0:0:0:0
LOG:md_rand.c:curr_pid: 1100
LOG:bn_prime.c:
LOG:bn_prime.c:Selecting random value
LOG:bn_rand.c:tim: 1379706761
LOG:bn_rand.c:buf:10234608:0:781826506:1487709264:2539128862:3574951953:1940847089:1349871355:750936850:1724013118:2546188305:2003303827:432382820:3931329511:3203006534:3655592832
LOG:md_rand.c:curr_pid: 1100
LOG:bn_rand.c:tim: 1379706761
LOG:bn_rand.c:buf:10236336:0:0:0:0:0:0:0:0:0:0:0:0:0:0:0
LOG:md_rand.c:curr_pid: 1100
LOG:bn_prime.c:
LOG:bn_prime.c:Selecting random value
LOG:bn_rand.c:tim: 1379706761
LOG:bn_rand.c:buf:10234608:0:2707185347:2981426797:1860788161:616631536:754461549:735708839:4228862834:2908939027:2580248130:3899752583:1126683649:3336402736:2508383590:4105442298
LOG:md_rand.c:curr_pid: 1100
LOG:bn_rand.c:tim: 1379706761
LOG:bn_rand.c:buf:10236336:0:0:0:0:0:0:0:0:0:0:0:0:0:0:0
LOG:md_rand.c:curr_pid: 1100
LOG:bn_prime.c:
LOG:bn_prime.c:Selecting random value
LOG:bn_rand.c:tim: 1379706761
LOG:bn_rand.c:buf:10234608:0:314423790:254110177:861026558:2212282344:1563240248:3357311566:2526048665:1180679704:1414215619:2779467939:243077433:3704783111:599920158:4293564184
LOG:md_rand.c:curr_pid: 1100
LOG:bn_rand.c:tim: 1379706761
LOG:bn_rand.c:buf:10236336:0:0:0:0:0:0:0:0:0:0:0:0:0:0:0
LOG:md_rand.c:curr_pid: 1100
LOG:bn_prime.c:
LOG:bn_prime.c:Selecting random value
LOG:bn_rand.c:tim: 1379706761
LOG:bn_rand.c:buf:10234608:0:2232176074:3487659037:3565148323:2888044237:3192151465:2640057574:595625281:1063442666:2012650668:2199907774:1846192800:3393357982:3459353052:3371595036
LOG:md_rand.c:curr_pid: 1100
LOG:bn_rand.c:tim: 1379706761
LOG:bn_rand.c:buf:10236336:0:0:0:0:0:0:0:0:0:0:0:0:0:0:0
LOG:md_rand.c:curr_pid: 1100
LOG:bn_prime.c:
LOG:bn_prime.c:Selecting random value
LOG:bn_rand.c:tim: 1379706761
LOG:bn_rand.c:buf:10234608:0:1810379228:501535314:1129438088:2992320757:2076812008:981335917:1391144963:779156315:2310299825:782493071:371931437:3326914743:2902596326:3767585330
LOG:md_rand.c:curr_pid: 1100
LOG:bn_rand.c:tim: 1379706761
LOG:bn_rand.c:buf:10236336:0:0:0:0:0:0:0:0:0:0:0:0:0:0:0
LOG:md_rand.c:curr_pid: 1100
LOG:bn_prime.c:
LOG:bn_prime.c:Selecting random value
LOG:bn_rand.c:tim: 1379706761
LOG:bn_rand.c:buf:10234608:0:1675672626:2377089949:589979437:3201673990:2242544727:2483182432:372898863:3944853505:2520365279:1615049637:1766876213:2473975353:698917746:4084830300
LOG:md_rand.c:curr_pid: 1100
LOG:bn_rand.c:tim: 1379706761
LOG:bn_rand.c:buf:10236336:0:0:0:0:0:0:0:0:0:0:0:0:0:0:0
LOG:md_rand.c:curr_pid: 1100
LOG:bn_prime.c:
LOG:bn_prime.c:Selecting random value
LOG:bn_rand.c:tim: 1379706761
LOG:bn_rand.c:buf:10234608:0:1322550883:556314350:1838533743:3359767713:3168212372:3519929904:1543105094:1930627496:1182166806:1275635:2655932058:2956192283:3460524146:3812445919
LOG:md_rand.c:curr_pid: 1100
LOG:bn_rand.c:tim: 1379706761
LOG:bn_rand.c:buf:10236336:0:0:0:0:0:0:0:0:0:0:0:0:0:0:0
LOG:md_rand.c:curr_pid: 1100
LOG:bn_prime.c:
LOG:bn_prime.c:Selecting random value
LOG:bn_rand.c:tim: 1379706761
LOG:bn_rand.c:buf:10234608:0:2763152262:625805415:2653482130:908924092:1912076458:1090350194:185160406:2124023497:116638206:3107775831:548144177:827772588:3270702889:3897482772
LOG:md_rand.c:curr_pid: 1100
LOG:bn_rand.c:tim: 1379706761
LOG:bn_rand.c:buf:10236336:0:0:0:0:0:0:0:0:0:0:0:0:0:0:0
LOG:md_rand.c:curr_pid: 1100
LOG:bn_prime.c:
LOG:bn_prime.c:Selecting random value
LOG:bn_rand.c:tim: 1379706761
LOG:bn_rand.c:buf:10234608:0:852406058:2516149187:1255644234:1648691052:265775917:2805699667:1400467842:2934915095:450119862:23555156:4223108461:3032450459:170287991:3473886423
LOG:md_rand.c:curr_pid: 1100
LOG:bn_rand.c:tim: 1379706761
LOG:bn_rand.c:buf:10236336:0:0:0:0:0:0:0:0:0:0:0:0:0:0:0
LOG:md_rand.c:curr_pid: 1100
LOG:bn_rand.c:tim: 1379706761
LOG:bn_rand.c:buf:10236336:0:0:0:0:0:0:0:0:0:0:0:0:0:0:0
LOG:md_rand.c:curr_pid: 1100
LOG:bn_rand.c:tim: 1379706761
LOG:bn_rand.c:buf:10236336:0:0:0:0:0:0:0:0:0:0:0:0:0:0:0
LOG:md_rand.c:curr_pid: 1100
LOG:bn_prime.c:
LOG:bn_prime.c:Selecting random value
LOG:bn_rand.c:tim: 1379706761
LOG:bn_rand.c:buf:10234608:0:3528223454:2880833795:2128316936:2467391689:2978890370:1031640139:1017165403:1331097765:2792850785:2011833630:2299883247:2716697045:3276764186:3810036242
LOG:md_rand.c:curr_pid: 1100
LOG:bn_rand.c:tim: 1379706761
LOG:bn_rand.c:buf:10236336:0:0:0:0:0:0:0:0:0:0:0:0:0:0:0
LOG:md_rand.c:curr_pid: 1100
LOG:bn_prime.c:
LOG:bn_prime.c:Selecting random value
LOG:bn_rand.c:tim: 1379706761
LOG:bn_rand.c:buf:10234608:0:1866784349:251886890:2808986126:3927548105:3133871161:3274833126:3400411082:616543384:1548514154:495750353:248869896:533949367:1855982975:3817565694
LOG:md_rand.c:curr_pid: 1100
LOG:bn_rand.c:tim: 1379706761
LOG:bn_rand.c:buf:10236336:0:0:0:0:0:0:0:0:0:0:0:0:0:0:0
LOG:md_rand.c:curr_pid: 1100
LOG:bn_prime.c:
LOG:bn_prime.c:Selecting random value
LOG:bn_rand.c:tim: 1379706761
LOG:bn_rand.c:buf:10234608:0:91281027:68293479:277302196:2083096432:1720285005:1322237711:4017288080:1274691042:603879355:3315107025:1955384642:3807391931:1444895377:3754887480
LOG:md_rand.c:curr_pid: 1100
LOG:bn_rand.c:tim: 1379706761
LOG:bn_rand.c:buf:10236336:0:0:0:0:0:0:0:0:0:0:0:0:0:0:0
LOG:md_rand.c:curr_pid: 1100
LOG:bn_prime.c:
LOG:bn_prime.c:Selecting random value
LOG:bn_rand.c:tim: 1379706761
LOG:bn_rand.c:buf:10234608:0:981722610:3676748326:188448588:126226730:4151020835:1715224899:3553214037:4275488441:4121721533:3004011536:1915178190:1106821425:2193828546:4157118332
LOG:md_rand.c:curr_pid: 1100
LOG:bn_rand.c:tim: 1379706761
LOG:bn_rand.c:buf:10236336:0:0:0:0:0:0:0:0:0:0:0:0:0:0:0
LOG:md_rand.c:curr_pid: 1100
LOG:bn_prime.c:
LOG:bn_prime.c:Selecting random value
LOG:bn_rand.c:tim: 1379706761
LOG:bn_rand.c:buf:10234608:0:1359795904:3844390420:3346175552:1417751661:3737983789:4189751838:49896451:1642725072:2199343356:7316615:569051558:3904134415:2548859865:3873081709
LOG:md_rand.c:curr_pid: 1100
LOG:bn_rand.c:tim: 1379706761
LOG:bn_rand.c:buf:10236336:0:0:0:0:0:0:0:0:0:0:0:0:0:0:0
LOG:md_rand.c:curr_pid: 1100
LOG:bn_prime.c:
LOG:bn_prime.c:Selecting random value
LOG:bn_rand.c:tim: 1379706761
LOG:bn_rand.c:buf:10234608:0:1978163440:1843784466:3650013772:2629291650:2341328766:704893297:2172648190:2177367322:4273980362:3587804700:2039817027:3114825157:3593894005:4187312312
LOG:md_rand.c:curr_pid: 1100
LOG:bn_rand.c:tim: 1379706761
LOG:bn_rand.c:buf:10236336:0:0:0:0:0:0:0:0:0:0:0:0:0:0:0
LOG:md_rand.c:curr_pid: 1100
LOG:bn_prime.c:
LOG:bn_prime.c:Selecting random value
LOG:bn_rand.c:tim: 1379706761
LOG:bn_rand.c:buf:10234608:0:4251523868:1437843456:1486076768:1287666015:3328539799:3142454892:3200090520:159011596:3839314056:2314338065:708918268:3318488088:2547502764:3962385452
LOG:md_rand.c:curr_pid: 1100
LOG:bn_rand.c:tim: 1379706761
LOG:bn_rand.c:buf:10236336:0:0:0:0:0:0:0:0:0:0:0:0:0:0:0
LOG:md_rand.c:curr_pid: 1100
LOG:bn_prime.c:
LOG:bn_prime.c:Selecting random value
LOG:bn_rand.c:tim: 1379706761
LOG:bn_rand.c:buf:10234608:0:2822905148:4266093815:2027302748:3428131975:3283513311:3041639468:2648388429:2407075536:3399463908:2048297872:1090095586:2336106113:613919127:3223323568
LOG:md_rand.c:curr_pid: 1100
LOG:bn_rand.c:tim: 1379706761
LOG:bn_rand.c:buf:10236336:0:0:0:0:0:0:0:0:0:0:0:0:0:0:0
LOG:md_rand.c:curr_pid: 1100
LOG:bn_prime.c:
LOG:bn_prime.c:Selecting random value
LOG:bn_rand.c:tim: 1379706761
LOG:bn_rand.c:buf:10234608:0:257099646:2702070043:2813176036:3196344828:1087249553:2246643127:2581455377:985546125:1135997273:3253853634:749596172:69636101:3227674639:3301606661
LOG:md_rand.c:curr_pid: 1100
LOG:bn_rand.c:tim: 1379706761
LOG:bn_rand.c:buf:10236336:0:0:0:0:0:0:0:0:0:0:0:0:0:0:0
LOG:md_rand.c:curr_pid: 1100
LOG:bn_prime.c:
LOG:bn_prime.c:Selecting random value
LOG:bn_rand.c:tim: 1379706761
LOG:bn_rand.c:buf:10234608:0:827611485:3456853485:3846486698:2172002933:1981365947:3100678539:342069140:4285304927:3710098243:63404532:2233512780:3143846651:4268475106:3855595050
LOG:md_rand.c:curr_pid: 1100
LOG:bn_rand.c:tim: 1379706761
LOG:bn_rand.c:buf:10236336:0:0:0:0:0:0:0:0:0:0:0:0:0:0:0
LOG:md_rand.c:curr_pid: 1100
LOG:bn_prime.c:
LOG:bn_prime.c:Selecting random value
LOG:bn_rand.c:tim: 1379706761
LOG:bn_rand.c:buf:10234608:0:4022987529:3314828264:871386296:867909328:3049480215:2517697930:3325004548:3041548485:1516808910:510539707:293604807:2365909425:3552424275:3588702955
LOG:md_rand.c:curr_pid: 1100
LOG:bn_rand.c:tim: 1379706761
LOG:bn_rand.c:buf:10236336:0:0:0:0:0:0:0:0:0:0:0:0:0:0:0
LOG:md_rand.c:curr_pid: 1100
LOG:bn_prime.c:
LOG:bn_prime.c:Selecting random value
LOG:bn_rand.c:tim: 1379706761
LOG:bn_rand.c:buf:10234608:0:1499493447:4026371961:3250288766:60494285:762971990:3317321437:1484280285:2661032905:3351981391:473265888:2452341909:3873565555:2678862559:3295866326
LOG:md_rand.c:curr_pid: 1100
LOG:bn_rand.c:tim: 1379706761
LOG:bn_rand.c:buf:10236336:0:0:0:0:0:0:0:0:0:0:0:0:0:0:0
LOG:md_rand.c:curr_pid: 1100
LOG:bn_prime.c:
LOG:bn_prime.c:Selecting random value
LOG:bn_rand.c:tim: 1379706761
LOG:bn_rand.c:buf:10234608:0:4134394704:628511556:1937666749:1083280427:462577358:3692574921:965126333:1386862557:3934470808:2896700174:2591794441:3230834497:2748029055:3826239009
LOG:md_rand.c:curr_pid: 1100
LOG:bn_rand.c:tim: 1379706761
LOG:bn_rand.c:buf:10236336:0:0:0:0:0:0:0:0:0:0:0:0:0:0:0
LOG:md_rand.c:curr_pid: 1100
LOG:bn_prime.c:
LOG:bn_prime.c:Selecting random value
LOG:bn_rand.c:tim: 1379706761
LOG:bn_rand.c:buf:10234608:0:3436261190:3317129890:4134613140:1921449554:2492590787:1170981099:2089044022:2167010192:4105210834:3646488378:1602851512:3486080546:2198908702:3939631257
LOG:md_rand.c:curr_pid: 1100
LOG:bn_rand.c:tim: 1379706761
LOG:bn_rand.c:buf:10236336:0:0:0:0:0:0:0:0:0:0:0:0:0:0:0
LOG:md_rand.c:curr_pid: 1100
LOG:bn_prime.c:
LOG:bn_prime.c:Selecting random value
LOG:bn_rand.c:tim: 1379706761
LOG:bn_rand.c:buf:10234608:0:195747156:2014122881:1718421170:3941018432:2423848839:3447623192:2740859101:3936648219:2610445588:74622280:2740068660:4261173508:2641863034:3723652381
LOG:md_rand.c:curr_pid: 1100
LOG:bn_rand.c:tim: 1379706761
LOG:bn_rand.c:buf:10236336:0:0:0:0:0:0:0:0:0:0:0:0:0:0:0
LOG:md_rand.c:curr_pid: 1100
LOG:bn_prime.c:
LOG:bn_prime.c:Selecting random value
LOG:bn_rand.c:tim: 1379706761
LOG:bn_rand.c:buf:10234608:0:2743398339:3472020000:764223051:3966669965:2897686028:3521807637:3101955159:570021455:762461972:1391312230:2510427355:157273805:428924087:3919586608
LOG:md_rand.c:curr_pid: 1100
LOG:bn_rand.c:tim: 1379706761
LOG:bn_rand.c:buf:10236336:0:0:0:0:0:0:0:0:0:0:0:0:0:0:0
LOG:md_rand.c:curr_pid: 1100
LOG:bn_prime.c:
LOG:bn_prime.c:Selecting random value
LOG:bn_rand.c:tim: 1379706761
LOG:bn_rand.c:buf:10234608:0:1555302123:1444261400:617958426:1740482042:144506983:847591686:2031367885:2727263236:1910125837:3312205431:4261380555:3678233146:2714952948:3780085604
LOG:md_rand.c:curr_pid: 1100
LOG:bn_rand.c:tim: 1379706761
LOG:bn_rand.c:buf:10236336:0:0:0:0:0:0:0:0:0:0:0:0:0:0:0
LOG:md_rand.c:curr_pid: 1100
LOG:bn_prime.c:
LOG:bn_prime.c:Selecting random value
LOG:bn_rand.c:tim: 1379706761
LOG:bn_rand.c:buf:10234608:0:473315349:116542651:3195667516:1004917316:3051667822:3049549440:3011900981:3500678964:2839309006:2971660083:1800137394:1500030717:3110546082:3897593988
LOG:md_rand.c:curr_pid: 1100
LOG:bn_rand.c:tim: 1379706761
LOG:bn_rand.c:buf:10236336:0:0:0:0:0:0:0:0:0:0:0:0:0:0:0
LOG:md_rand.c:curr_pid: 1100
LOG:bn_prime.c:
LOG:bn_prime.c:Selecting random value
LOG:bn_rand.c:tim: 1379706761
LOG:bn_rand.c:buf:10234608:0:3362846644:1780347173:2657729263:1719300597:2073903539:800433407:2201150002:344199252:3451013207:3401294349:3624055484:661940490:2388404425:3650786813
LOG:md_rand.c:curr_pid: 1100
LOG:bn_rand.c:tim: 1379706761
LOG:bn_rand.c:buf:10236336:0:0:0:0:0:0:0:0:0:0:0:0:0:0:0
LOG:md_rand.c:curr_pid: 1100
LOG:bn_prime.c:
LOG:bn_prime.c:Selecting random value
LOG:bn_rand.c:tim: 1379706761
LOG:bn_rand.c:buf:10234608:0:3319446442:1491873315:320017880:574428944:1043187655:3774943146:2243909770:1003278256:1517366250:1515518498:3295805320:1382099884:1753198233:4230733190
LOG:md_rand.c:curr_pid: 1100
LOG:bn_rand.c:tim: 1379706761
LOG:bn_rand.c:buf:10236336:0:0:0:0:0:0:0:0:0:0:0:0:0:0:0
LOG:md_rand.c:curr_pid: 1100
LOG:bn_prime.c:
LOG:bn_prime.c:Selecting random value
LOG:bn_rand.c:tim: 1379706761
LOG:bn_rand.c:buf:10234608:0:3149502500:717518505:4057769142:3494983889:529292660:2932169891:3722029047:3641848313:138727415:2254246805:145479361:1353304965:3420374407:3844173152
LOG:md_rand.c:curr_pid: 1100
LOG:bn_rand.c:tim: 1379706761
LOG:bn_rand.c:buf:10236336:0:0:0:0:0:0:0:0:0:0:0:0:0:0:0
LOG:md_rand.c:curr_pid: 1100
LOG:bn_prime.c:
LOG:bn_prime.c:Selecting random value
LOG:bn_rand.c:tim: 1379706761
LOG:bn_rand.c:buf:10234608:0:3720108363:91331817:1968185046:2941331051:3943653778:1565560671:850266942:2120945961:4217389276:3815501748:3259754126:4161738913:2423303892:3790387878
LOG:md_rand.c:curr_pid: 1100
LOG:bn_rand.c:tim: 1379706761
LOG:bn_rand.c:buf:10236336:0:0:0:0:0:0:0:0:0:0:0:0:0:0:0
LOG:md_rand.c:curr_pid: 1100
LOG:bn_prime.c:
LOG:bn_prime.c:Selecting random value
LOG:bn_rand.c:tim: 1379706761
LOG:bn_rand.c:buf:10234608:0:4227695129:3311949380:2672591224:3456262147:3821256508:3674457335:1696074679:3512666227:2602848543:155319917:1258882432:3310846111:3096669186:4007221661
LOG:md_rand.c:curr_pid: 1100
LOG:bn_rand.c:tim: 1379706761
LOG:bn_rand.c:buf:10236336:0:0:0:0:0:0:0:0:0:0:0:0:0:0:0
LOG:md_rand.c:curr_pid: 1100
LOG:bn_prime.c:
LOG:bn_prime.c:Selecting random value
LOG:bn_rand.c:tim: 1379706761
LOG:bn_rand.c:buf:10234608:0:1405560831:2081689525:617567338:1863749807:2249624616:780301275:1804937981:2215023830:2046792929:2712620005:2885685478:958427340:4186312231:3605721690
LOG:md_rand.c:curr_pid: 1100
LOG:bn_rand.c:tim: 1379706761
LOG:bn_rand.c:buf:10236336:0:0:0:0:0:0:0:0:0:0:0:0:0:0:0
LOG:md_rand.c:curr_pid: 1100
LOG:bn_prime.c:
LOG:bn_prime.c:Selecting random value
LOG:bn_rand.c:tim: 1379706761
LOG:bn_rand.c:buf:10234608:0:1266315658:3268745753:1074424472:3263084655:469493397:2646430853:765643352:3508278171:3770353382:3770248827:3814604507:242048992:3434970776:3495324069
LOG:md_rand.c:curr_pid: 1100
LOG:bn_rand.c:tim: 1379706761
LOG:bn_rand.c:buf:10236336:0:0:0:0:0:0:0:0:0:0:0:0:0:0:0
LOG:md_rand.c:curr_pid: 1100
LOG:bn_prime.c:
LOG:bn_prime.c:Selecting random value
LOG:bn_rand.c:tim: 1379706761
LOG:bn_rand.c:buf:10234608:0:293332805:2556463175:2919712997:3318627759:3333736490:1552558430:3487573337:2451827100:4099602727:391381347:1504074409:2645661919:461135255:3851692543
LOG:md_rand.c:curr_pid: 1100
LOG:bn_rand.c:tim: 1379706761
LOG:bn_rand.c:buf:10236336:0:0:0:0:0:0:0:0:0:0:0:0:0:0:0
LOG:md_rand.c:curr_pid: 1100
LOG:bn_prime.c:
LOG:bn_prime.c:Selecting random value
LOG:bn_rand.c:tim: 1379706761
LOG:bn_rand.c:buf:10234608:0:2317296356:3287079492:258019263:604175422:2723993088:2360682685:102828129:3024680358:1680837475:1049949229:3978468670:49444926:3534082701:3489667005
LOG:md_rand.c:curr_pid: 1100
LOG:bn_rand.c:tim: 1379706761
LOG:bn_rand.c:buf:10236336:0:0:0:0:0:0:0:0:0:0:0:0:0:0:0
LOG:md_rand.c:curr_pid: 1100
LOG:bn_rand.c:tim: 1379706761
LOG:bn_rand.c:buf:10236336:0:0:0:0:0:0:0:0:0:0:0:0:0:0:0
LOG:md_rand.c:curr_pid: 1100
LOG:bn_prime.c:
LOG:bn_prime.c:Selecting random value
LOG:bn_rand.c:tim: 1379706761
LOG:bn_rand.c:buf:10234608:0:3951419794:1721701398:328317875:2006502187:183978758:1460813470:2915722152:1719551660:2339201053:2092102759:3884984981:134129659:1840782848:3513237690
LOG:md_rand.c:curr_pid: 1100
LOG:bn_rand.c:tim: 1379706761
LOG:bn_rand.c:buf:10236336:0:0:0:0:0:0:0:0:0:0:0:0:0:0:0
LOG:md_rand.c:curr_pid: 1100
LOG:bn_prime.c:
LOG:bn_prime.c:Selecting random value
LOG:bn_rand.c:tim: 1379706761
LOG:bn_rand.c:buf:10234608:0:2384013025:3314932374:1259104914:3955081919:132586184:1819711283:1426305573:2602113866:1020731036:352255964:1719814688:4141505833:3252127322:3452620703
LOG:md_rand.c:curr_pid: 1100
LOG:bn_rand.c:tim: 1379706761
LOG:bn_rand.c:buf:10236336:0:0:0:0:0:0:0:0:0:0:0:0:0:0:0
LOG:md_rand.c:curr_pid: 1100
LOG:bn_prime.c:
LOG:bn_prime.c:Selecting random value
LOG:bn_rand.c:tim: 1379706761
LOG:bn_rand.c:buf:10234608:0:2602771156:4294121707:1576383706:999004108:1978346183:1007800179:1799037458:3540249048:1225968487:934239917:1061563072:2514070763:2836202217:3603815285
LOG:md_rand.c:curr_pid: 1100
LOG:bn_rand.c:tim: 1379706761
LOG:bn_rand.c:buf:10236336:0:0:0:0:0:0:0:0:0:0:0:0:0:0:0
LOG:md_rand.c:curr_pid: 1100
LOG:bn_prime.c:
LOG:bn_prime.c:Selecting random value
LOG:bn_rand.c:tim: 1379706761
LOG:bn_rand.c:buf:10234608:0:3749493094:404303168:3677802123:3046611845:1870327012:44690051:630156036:380000917:2319673703:988440800:4034819418:2136073627:3588779780:3300400551
LOG:md_rand.c:curr_pid: 1100
LOG:bn_rand.c:tim: 1379706761
LOG:bn_rand.c:buf:10236336:0:0:0:0:0:0:0:0:0:0:0:0:0:0:0
LOG:md_rand.c:curr_pid: 1100
LOG:bn_prime.c:
LOG:bn_prime.c:Selecting random value
LOG:bn_rand.c:tim: 1379706761
LOG:bn_rand.c:buf:10234608:0:4036634831:3516807140:2122210026:3332571544:1156809545:695846344:531886065:4241062202:249307969:2286475363:3821303374:3308910706:3623336410:3930027475
LOG:md_rand.c:curr_pid: 1100
LOG:bn_rand.c:tim: 1379706761
LOG:bn_rand.c:buf:10236336:0:0:0:0:0:0:0:0:0:0:0:0:0:0:0
LOG:md_rand.c:curr_pid: 1100
LOG:bn_prime.c:
LOG:bn_prime.c:Selecting random value
LOG:bn_rand.c:tim: 1379706761
LOG:bn_rand.c:buf:10234608:0:947474184:1152851296:487898327:3767013804:3570597181:3667428388:2431438738:2170899336:958673190:4057176362:4000992892:2835596783:150210760:4286790704
LOG:md_rand.c:curr_pid: 1100
LOG:bn_rand.c:tim: 1379706761
LOG:bn_rand.c:buf:10236336:0:0:0:0:0:0:0:0:0:0:0:0:0:0:0
LOG:md_rand.c:curr_pid: 1100
LOG:bn_prime.c:
LOG:bn_prime.c:Selecting random value
LOG:bn_rand.c:tim: 1379706761
LOG:bn_rand.c:buf:10234608:0:3194863749:2938655854:3391023957:2419293846:2302932388:2875552984:2941078784:2426882780:283561729:641712405:242805665:3662573526:2065705441:3326366187
LOG:md_rand.c:curr_pid: 1100
LOG:bn_rand.c:tim: 1379706761
LOG:bn_rand.c:buf:10236336:0:0:0:0:0:0:0:0:0:0:0:0:0:0:0
LOG:md_rand.c:curr_pid: 1100
LOG:bn_prime.c:
LOG:bn_prime.c:Selecting random value
LOG:bn_rand.c:tim: 1379706761
LOG:bn_rand.c:buf:10234608:0:724257186:2103919647:310147637:580200996:3594449555:1355420373:3047476225:617290802:514929690:3718584660:3715954106:1032519705:3576575994:4264458990
LOG:md_rand.c:curr_pid: 1100
LOG:bn_rand.c:tim: 1379706761
LOG:bn_rand.c:buf:10236336:0:0:0:0:0:0:0:0:0:0:0:0:0:0:0
LOG:md_rand.c:curr_pid: 1100
LOG:bn_prime.c:
LOG:bn_prime.c:Selecting random value
LOG:bn_rand.c:tim: 1379706761
LOG:bn_rand.c:buf:10234608:0:3715625016:3655679986:2438914951:1376548914:2860796969:1647712283:1188189537:584185611:213137217:3500599415:2170375463:2925585585:537602908:4008684184
LOG:md_rand.c:curr_pid: 1100
LOG:bn_rand.c:tim: 1379706761
LOG:bn_rand.c:buf:10236336:0:0:0:0:0:0:0:0:0:0:0:0:0:0:0
LOG:md_rand.c:curr_pid: 1100
LOG:bn_prime.c:
LOG:bn_prime.c:Selecting random value
LOG:bn_rand.c:tim: 1379706761
LOG:bn_rand.c:buf:10234608:0:3311828735:2041214831:391142408:3203383841:1987094345:737273950:3009871753:1613293483:323686342:3383881778:3775456264:2284840278:1180828078:4059102072
LOG:md_rand.c:curr_pid: 1100
LOG:bn_rand.c:tim: 1379706761
LOG:bn_rand.c:buf:10236336:0:0:0:0:0:0:0:0:0:0:0:0:0:0:0
LOG:md_rand.c:curr_pid: 1100
LOG:bn_prime.c:
LOG:bn_prime.c:Selecting random value
LOG:bn_rand.c:tim: 1379706761
LOG:bn_rand.c:buf:10234608:0:1780490041:1332937524:3779354078:3404411605:1317122833:4266861593:163463681:4010748432:446549359:2664075188:254470226:1779871345:201518567:4195884088
LOG:md_rand.c:curr_pid: 1100
LOG:bn_rand.c:tim: 1379706761
LOG:bn_rand.c:buf:10236336:0:0:0:0:0:0:0:0:0:0:0:0:0:0:0
LOG:md_rand.c:curr_pid: 1100
LOG:bn_prime.c:
LOG:bn_prime.c:Selecting random value
LOG:bn_rand.c:tim: 1379706761
LOG:bn_rand.c:buf:10234608:0:911252310:123669569:2880492873:3629981153:2012222570:2650121352:1829028582:1828531904:468764907:92790643:2609933526:1809766291:3583920468:4279155957
LOG:md_rand.c:curr_pid: 1100
LOG:bn_rand.c:tim: 1379706761
LOG:bn_rand.c:buf:10236336:0:0:0:0:0:0:0:0:0:0:0:0:0:0:0
LOG:md_rand.c:curr_pid: 1100
LOG:bn_prime.c:
LOG:bn_prime.c:Selecting random value
LOG:bn_rand.c:tim: 1379706761
LOG:bn_rand.c:buf:10234608:0:2194106904:2066022553:39477654:4275570820:1090247926:1686681313:286964564:842893526:2806107306:2465549825:1669286504:3509588404:1353036490:3486878461
LOG:md_rand.c:curr_pid: 1100
LOG:bn_rand.c:tim: 1379706761
LOG:bn_rand.c:buf:10236336:0:0:0:0:0:0:0:0:0:0:0:0:0:0:0
LOG:md_rand.c:curr_pid: 1100
LOG:bn_rand.c:tim: 1379706761
LOG:bn_rand.c:buf:10236336:0:0:0:0:0:0:0:0:0:0:0:0:0:0:0
LOG:md_rand.c:curr_pid: 1100
LOG:bn_prime.c:
LOG:bn_prime.c:Selecting random value
LOG:bn_rand.c:tim: 1379706761
LOG:bn_rand.c:buf:10234608:0:998033374:1624541687:2114010566:3817047172:1014029943:2638390778:4068605577:3249520943:1748591528:3988405412:207598229:1535493998:730940269:3844965248
LOG:md_rand.c:curr_pid: 1100
LOG:bn_rand.c:tim: 1379706761
LOG:bn_rand.c:buf:10236336:0:0:0:0:0:0:0:0:0:0:0:0:0:0:0
LOG:md_rand.c:curr_pid: 1100
LOG:bn_prime.c:
LOG:bn_prime.c:Selecting random value
LOG:bn_rand.c:tim: 1379706761
LOG:bn_rand.c:buf:10234608:0:1261800178:928482726:4216403682:4205699717:1828615697:1885905300:3469560563:1440533651:1306116546:3348172042:3003862475:4120535442:4202389342:3633666995
LOG:md_rand.c:curr_pid: 1100
LOG:bn_rand.c:tim: 1379706761
LOG:bn_rand.c:buf:10236336:0:0:0:0:0:0:0:0:0:0:0:0:0:0:0
LOG:md_rand.c:curr_pid: 1100
LOG:bn_prime.c:
LOG:bn_prime.c:Selecting random value
LOG:bn_rand.c:tim: 1379706761
LOG:bn_rand.c:buf:10234608:0:1893255144:1280191076:2864137742:1770958056:3663250137:3023421973:460908364:3761296562:3978167047:635856240:1730623630:3824296010:806682423:3348966305
LOG:md_rand.c:curr_pid: 1100
LOG:bn_rand.c:tim: 1379706761
LOG:bn_rand.c:buf:10236336:0:0:0:0:0:0:0:0:0:0:0:0:0:0:0
LOG:md_rand.c:curr_pid: 1100
LOG:bn_prime.c:
LOG:bn_prime.c:Selecting random value
LOG:bn_rand.c:tim: 1379706761
LOG:bn_rand.c:buf:10234608:0:1384468613:1998361365:2862834386:3740400291:2241360478:2094051217:1483660855:3447785972:3117178558:3185938607:2879293854:772704673:783025971:3470534753
LOG:md_rand.c:curr_pid: 1100
LOG:bn_rand.c:tim: 1379706761
LOG:bn_rand.c:buf:10236336:0:0:0:0:0:0:0:0:0:0:0:0:0:0:0
LOG:md_rand.c:curr_pid: 1100
LOG:bn_prime.c:
LOG:bn_prime.c:Selecting random value
LOG:bn_rand.c:tim: 1379706761
LOG:bn_rand.c:buf:10234608:0:1841729951:2418974269:2692385677:2209372813:1353253995:2397527321:240942163:1967390619:4240834466:3882631733:3183743350:3381906051:970724402:4154633424
LOG:md_rand.c:curr_pid: 1100
LOG:bn_rand.c:tim: 1379706761
LOG:bn_rand.c:buf:10236336:0:0:0:0:0:0:0:0:0:0:0:0:0:0:0
LOG:md_rand.c:curr_pid: 1100
LOG:bn_prime.c:
LOG:bn_prime.c:Selecting random value
LOG:bn_rand.c:tim: 1379706761
LOG:bn_rand.c:buf:10234608:0:3574789415:3761012138:3572251742:1983059383:821719353:4133683478:2921148060:924152653:2576501213:4209521881:2460256059:1843839890:2348695517:4067448213
LOG:md_rand.c:curr_pid: 1100
LOG:bn_rand.c:tim: 1379706761
LOG:bn_rand.c:buf:10236336:0:0:0:0:0:0:0:0:0:0:0:0:0:0:0
LOG:md_rand.c:curr_pid: 1100
LOG:bn_prime.c:
LOG:bn_prime.c:Selecting random value
LOG:bn_rand.c:tim: 1379706761
LOG:bn_rand.c:buf:10234608:0:304785692:2777073031:256584295:3453406958:167483598:3850795673:263417141:2778872105:3419761880:3184713871:2633970673:2454364850:197609089:4293314101
LOG:md_rand.c:curr_pid: 1100
LOG:bn_rand.c:tim: 1379706761
LOG:bn_rand.c:buf:10236336:0:0:0:0:0:0:0:0:0:0:0:0:0:0:0
LOG:md_rand.c:curr_pid: 1100
LOG:bn_prime.c:
LOG:bn_prime.c:Selecting random value
LOG:bn_rand.c:tim: 1379706761
LOG:bn_rand.c:buf:10234608:0:1513261421:2086104842:2532663980:3852122628:2502131121:1323990522:1798693861:253639648:3875485198:2454308895:1825504195:176685531:1049283421:3675227522
LOG:md_rand.c:curr_pid: 1100
LOG:bn_rand.c:tim: 1379706761
LOG:bn_rand.c:buf:10236336:0:0:0:0:0:0:0:0:0:0:0:0:0:0:0
LOG:md_rand.c:curr_pid: 1100
LOG:bn_prime.c:
LOG:bn_prime.c:Selecting random value
LOG:bn_rand.c:tim: 1379706761
LOG:bn_rand.c:buf:10234608:0:1430794936:3126815767:1725930333:155264977:1198853767:2622894194:1959226699:1779709246:957720147:1128492055:2810405801:1187272982:1843587466:3349554234
LOG:md_rand.c:curr_pid: 1100
LOG:bn_rand.c:tim: 1379706761
LOG:bn_rand.c:buf:10236336:0:0:0:0:0:0:0:0:0:0:0:0:0:0:0
LOG:md_rand.c:curr_pid: 1100
LOG:bn_prime.c:
LOG:bn_prime.c:Selecting random value
LOG:bn_rand.c:tim: 1379706761
LOG:bn_rand.c:buf:10234608:0:677322628:2373142148:1350219078:2163370694:136485996:845710104:1584929514:230848051:3346109065:1162692053:139331074:3093480094:3868979583:4146335164
LOG:md_rand.c:curr_pid: 1100
LOG:bn_rand.c:tim: 1379706761
LOG:bn_rand.c:buf:10236336:0:0:0:0:0:0:0:0:0:0:0:0:0:0:0
LOG:md_rand.c:curr_pid: 1100
LOG:bn_prime.c:
LOG:bn_prime.c:Selecting random value
LOG:bn_rand.c:tim: 1379706761
LOG:bn_rand.c:buf:10234608:0:303761793:2141018350:3945800905:3782258835:975486775:3704207550:3762319220:2330849984:1190687429:1203861665:3509539030:3860932052:3815390148:3717168605
LOG:md_rand.c:curr_pid: 1100
LOG:bn_rand.c:tim: 1379706761
LOG:bn_rand.c:buf:10236336:0:0:0:0:0:0:0:0:0:0:0:0:0:0:0
LOG:md_rand.c:curr_pid: 1100
LOG:bn_prime.c:
LOG:bn_prime.c:Selecting random value
LOG:bn_rand.c:tim: 1379706761
LOG:bn_rand.c:buf:10234608:0:3400189685:152354473:4208687250:1592183005:327623117:1603842462:1738913497:269694084:2533050535:3407232056:1309460709:661555883:759133723:3230797684
LOG:md_rand.c:curr_pid: 1100
LOG:bn_rand.c:tim: 1379706761
LOG:bn_rand.c:buf:10236336:0:0:0:0:0:0:0:0:0:0:0:0:0:0:0
LOG:md_rand.c:curr_pid: 1100
LOG:bn_prime.c:
LOG:bn_prime.c:Selecting random value
LOG:bn_rand.c:tim: 1379706761
LOG:bn_rand.c:buf:10234608:0:3841234304:2438704520:2622195243:2689208374:414669964:3053456192:3179641393:1814840320:1211589805:2768394358:2084425356:2668172855:2833061760:4008519219
LOG:md_rand.c:curr_pid: 1100
LOG:bn_rand.c:tim: 1379706761
LOG:bn_rand.c:buf:10236336:0:0:0:0:0:0:0:0:0:0:0:0:0:0:0
LOG:md_rand.c:curr_pid: 1100
LOG:bn_prime.c:
LOG:bn_prime.c:Selecting random value
LOG:bn_rand.c:tim: 1379706761
LOG:bn_rand.c:buf:10234608:0:1266745474:1530087866:3107676391:392208050:1477215932:238683780:1314640394:1971183644:144978179:3167948045:925227499:1537657931:4015436186:3880053994
LOG:md_rand.c:curr_pid: 1100
LOG:bn_rand.c:tim: 1379706761
LOG:bn_rand.c:buf:10236336:0:0:0:0:0:0:0:0:0:0:0:0:0:0:0
LOG:md_rand.c:curr_pid: 1100
LOG:bn_prime.c:
LOG:bn_prime.c:Selecting random value
LOG:bn_rand.c:tim: 1379706761
LOG:bn_rand.c:buf:10234608:0:582631712:921248923:211846453:4155462793:2892346633:1665157300:513609752:2656457888:3628740116:38609964:2369121569:957414272:4036954751:4110919275
LOG:md_rand.c:curr_pid: 1100
LOG:bn_rand.c:tim: 1379706761
LOG:bn_rand.c:buf:10236336:0:0:0:0:0:0:0:0:0:0:0:0:0:0:0
LOG:md_rand.c:curr_pid: 1100
LOG:bn_prime.c:
LOG:bn_prime.c:Selecting random value
LOG:bn_rand.c:tim: 1379706761
LOG:bn_rand.c:buf:10234608:0:3628426547:3011449899:2454557381:1973592507:3939229943:1485477046:1258229366:1921297103:2549303137:703261594:1541156632:3393760556:1815685405:4161770616
LOG:md_rand.c:curr_pid: 1100
LOG:bn_rand.c:tim: 1379706761
LOG:bn_rand.c:buf:10236336:0:0:0:0:0:0:0:0:0:0:0:0:0:0:0
LOG:md_rand.c:curr_pid: 1100
LOG:bn_prime.c:
LOG:bn_prime.c:Selecting random value
LOG:bn_rand.c:tim: 1379706761
LOG:bn_rand.c:buf:10234608:0:147352071:57417334:3888406066:1752613344:2583442659:2438544175:3203171756:445548582:16873279:2586500207:1834725487:898743559:417186214:3805414422
LOG:md_rand.c:curr_pid: 1100
LOG:bn_rand.c:tim: 1379706761
LOG:bn_rand.c:buf:10236336:0:0:0:0:0:0:0:0:0:0:0:0:0:0:0
LOG:md_rand.c:curr_pid: 1100
LOG:bn_prime.c:
LOG:bn_prime.c:Selecting random value
LOG:bn_rand.c:tim: 1379706761
LOG:bn_rand.c:buf:10234608:0:422755450:1047054623:4274152913:1345460850:2185824815:2255320324:843533409:4238619941:3816210042:1480800256:775535102:95665792:3686023101:4195814815
LOG:md_rand.c:curr_pid: 1100
LOG:bn_rand.c:tim: 1379706761
LOG:bn_rand.c:buf:10236336:0:0:0:0:0:0:0:0:0:0:0:0:0:0:0
LOG:md_rand.c:curr_pid: 1100
LOG:bn_prime.c:
LOG:bn_prime.c:Selecting random value
LOG:bn_rand.c:tim: 1379706761
LOG:bn_rand.c:buf:10234608:0:86977947:3318793138:1290469540:3438233749:764720228:273082116:647423372:1380899592:826389669:2983770747:2791434121:3568434354:12120441:3463431059
LOG:md_rand.c:curr_pid: 1100
LOG:bn_rand.c:tim: 1379706761
LOG:bn_rand.c:buf:10236336:0:0:0:0:0:0:0:0:0:0:0:0:0:0:0
LOG:md_rand.c:curr_pid: 1100
LOG:bn_prime.c:
LOG:bn_prime.c:Selecting random value
LOG:bn_rand.c:tim: 1379706761
LOG:bn_rand.c:buf:10234608:0:2667011127:198195618:1703361399:198964762:1845759205:3420221053:2085486697:929958236:174542988:1618609090:3676053281:359149992:2001961960:3244865871
LOG:md_rand.c:curr_pid: 1100
LOG:bn_rand.c:tim: 1379706761
LOG:bn_rand.c:buf:10236336:0:0:0:0:0:0:0:0:0:0:0:0:0:0:0
LOG:md_rand.c:curr_pid: 1100
LOG:bn_prime.c:
LOG:bn_prime.c:Selecting random value
LOG:bn_rand.c:tim: 1379706761
LOG:bn_rand.c:buf:10234608:0:3364269200:340212435:2765497772:2680603750:2182198299:1679829359:273870693:619605086:2947708490:2701484192:2792644637:725692452:3546059203:3682355488
LOG:md_rand.c:curr_pid: 1100
LOG:bn_rand.c:tim: 1379706761
LOG:bn_rand.c:buf:10236336:0:0:0:0:0:0:0:0:0:0:0:0:0:0:0
LOG:md_rand.c:curr_pid: 1100
LOG:bn_prime.c:
LOG:bn_prime.c:Selecting random value
LOG:bn_rand.c:tim: 1379706761
LOG:bn_rand.c:buf:10234608:0:2822094297:4164286337:659248521:4243424446:723448679:3766305445:2243891239:1670505332:2270258206:4233073187:2215462396:121894413:742250902:3588306057
LOG:md_rand.c:curr_pid: 1100
LOG:bn_rand.c:tim: 1379706761
LOG:bn_rand.c:buf:10236336:0:0:0:0:0:0:0:0:0:0:0:0:0:0:0
LOG:md_rand.c:curr_pid: 1100
LOG:bn_rand.c:tim: 1379706761
LOG:bn_rand.c:buf:10236336:0:0:0:0:0:0:0:0:0:0:0:0:0:0:0
LOG:md_rand.c:curr_pid: 1100
LOG:bn_prime.c:
LOG:bn_prime.c:Selecting random value
LOG:bn_rand.c:tim: 1379706761
LOG:bn_rand.c:buf:10234608:0:1724573641:3192697712:3881337972:1571703602:571649069:2896049253:3320167151:3866907963:4215143990:3029601895:2263242162:2813603914:2163183053:3360655770
LOG:md_rand.c:curr_pid: 1100
LOG:bn_rand.c:tim: 1379706761
LOG:bn_rand.c:buf:10236336:0:0:0:0:0:0:0:0:0:0:0:0:0:0:0
LOG:md_rand.c:curr_pid: 1100
LOG:bn_prime.c:
LOG:bn_prime.c:Selecting random value
LOG:bn_rand.c:tim: 1379706761
LOG:bn_rand.c:buf:10234608:0:292333244:177166437:2023275379:2856296169:1630302163:3410062763:2278617014:845501497:3212754600:2678427924:1754714063:805236403:67435636:3494074555
LOG:md_rand.c:curr_pid: 1100
LOG:bn_rand.c:tim: 1379706761
LOG:bn_rand.c:buf:10236336:0:0:0:0:0:0:0:0:0:0:0:0:0:0:0
LOG:md_rand.c:curr_pid: 1100
LOG:bn_prime.c:
LOG:bn_prime.c:Selecting random value
LOG:bn_rand.c:tim: 1379706761
LOG:bn_rand.c:buf:10234608:0:459282224:1038112429:228793936:817294424:3316327301:2244924530:1061545818:3114475064:1107356322:81573639:1515075592:3696958731:292880806:3352752832
LOG:md_rand.c:curr_pid: 1100
LOG:bn_rand.c:tim: 1379706761
LOG:bn_rand.c:buf:10236336:0:0:0:0:0:0:0:0:0:0:0:0:0:0:0
LOG:md_rand.c:curr_pid: 1100
LOG:bn_prime.c:
LOG:bn_prime.c:Selecting random value
LOG:bn_rand.c:tim: 1379706761
LOG:bn_rand.c:buf:10234608:0:894372913:1796728221:785803611:4018459646:2190474590:2660880883:2954143597:77003116:3275720658:66651202:3186239722:713179821:432371621:3443841461
LOG:md_rand.c:curr_pid: 1100
LOG:bn_rand.c:tim: 1379706761
LOG:bn_rand.c:buf:10236336:0:0:0:0:0:0:0:0:0:0:0:0:0:0:0
LOG:md_rand.c:curr_pid: 1100
LOG:bn_prime.c:
LOG:bn_prime.c:Selecting random value
LOG:bn_rand.c:tim: 1379706761
LOG:bn_rand.c:buf:10234608:0:1258330338:4091052797:1438695763:1797831042:3135618404:65656946:1511055841:2621792036:123485196:1499560879:4218295106:3363096318:4222809017:3996240460
LOG:md_rand.c:curr_pid: 1100
LOG:bn_rand.c:tim: 1379706761
LOG:bn_rand.c:buf:10236336:0:0:0:0:0:0:0:0:0:0:0:0:0:0:0
LOG:md_rand.c:curr_pid: 1100
LOG:bn_prime.c:
LOG:bn_prime.c:Selecting random value
LOG:bn_rand.c:tim: 1379706761
LOG:bn_rand.c:buf:10234608:0:981607991:3711969004:3085141014:236107642:416750477:1227497003:518899741:503011050:2951806752:3923897943:442238484:1233983751:1334907789:4240532445
LOG:md_rand.c:curr_pid: 1100
LOG:bn_rand.c:tim: 1379706761
LOG:bn_rand.c:buf:10236336:0:0:0:0:0:0:0:0:0:0:0:0:0:0:0
LOG:md_rand.c:curr_pid: 1100
LOG:bn_prime.c:
LOG:bn_prime.c:Selecting random value
LOG:bn_rand.c:tim: 1379706761
LOG:bn_rand.c:buf:10234608:0:555283836:3221036975:3025296394:3480770480:3470533510:2794788010:1495740495:1399306937:900215675:3036096412:26825629:86372327:3510212747:3766827439
LOG:md_rand.c:curr_pid: 1100
LOG:bn_rand.c:tim: 1379706761
LOG:bn_rand.c:buf:10236336:0:0:0:0:0:0:0:0:0:0:0:0:0:0:0
LOG:md_rand.c:curr_pid: 1100
LOG:bn_prime.c:
LOG:bn_prime.c:Selecting random value
LOG:bn_rand.c:tim: 1379706761
LOG:bn_rand.c:buf:10234608:0:3730137708:509554491:1609642824:3366144167:2466595011:2777143292:2614412022:2193203306:2223362899:4073429537:2631291055:1315035563:1593273292:3679732798
LOG:md_rand.c:curr_pid: 1100
LOG:bn_rand.c:tim: 1379706761
LOG:bn_rand.c:buf:10236336:0:0:0:0:0:0:0:0:0:0:0:0:0:0:0
LOG:md_rand.c:curr_pid: 1100
LOG:bn_prime.c:
LOG:bn_prime.c:Selecting random value
LOG:bn_rand.c:tim: 1379706761
LOG:bn_rand.c:buf:10234608:0:3310758286:2521041697:2594454918:4055616420:4030936681:1533168136:2031737690:196555576:3031864715:1654295042:3156322246:2564355498:1642435526:4266004546
LOG:md_rand.c:curr_pid: 1100
LOG:bn_rand.c:tim: 1379706761
LOG:bn_rand.c:buf:10236336:0:0:0:0:0:0:0:0:0:0:0:0:0:0:0
LOG:md_rand.c:curr_pid: 1100
LOG:bn_prime.c:
LOG:bn_prime.c:Selecting random value
LOG:bn_rand.c:tim: 1379706761
LOG:bn_rand.c:buf:10234608:0:361002941:1087251098:2132275979:2099445242:497645124:524754213:2841354811:1775178048:2623436139:4142903193:2491985049:550776958:3523572832:4065962560
LOG:md_rand.c:curr_pid: 1100
LOG:bn_rand.c:tim: 1379706761
LOG:bn_rand.c:buf:10236336:0:0:0:0:0:0:0:0:0:0:0:0:0:0:0
LOG:md_rand.c:curr_pid: 1100
LOG:bn_prime.c:
LOG:bn_prime.c:Selecting random value
LOG:bn_rand.c:tim: 1379706761
LOG:bn_rand.c:buf:10234608:0:2610824989:2521856764:467201342:301909129:4106873211:2060988025:4133256144:2967699061:1243439910:3513035342:1934555519:3789931384:1243627827:3566322671
LOG:md_rand.c:curr_pid: 1100
LOG:bn_rand.c:tim: 1379706761
LOG:bn_rand.c:buf:10236336:0:0:0:0:0:0:0:0:0:0:0:0:0:0:0
LOG:md_rand.c:curr_pid: 1100
LOG:bn_prime.c:
LOG:bn_prime.c:Selecting random value
LOG:bn_rand.c:tim: 1379706761
LOG:bn_rand.c:buf:10234608:0:3728693181:1534824332:2387141876:1885376298:3140568101:1025844697:162375107:1965102685:22096613:749896392:3769079969:1162496578:1796681025:3675143074
LOG:md_rand.c:curr_pid: 1100
LOG:bn_rand.c:tim: 1379706761
LOG:bn_rand.c:buf:10236336:0:0:0:0:0:0:0:0:0:0:0:0:0:0:0
LOG:md_rand.c:curr_pid: 1100
LOG:bn_rand.c:tim: 1379706761
LOG:bn_rand.c:buf:10236336:0:0:0:0:0:0:0:0:0:0:0:0:0:0:0
LOG:md_rand.c:curr_pid: 1100
LOG:bn_prime.c:
LOG:bn_prime.c:Selecting random value
LOG:bn_rand.c:tim: 1379706761
LOG:bn_rand.c:buf:10234608:0:1409339107:555999093:627856753:1323133986:3356247950:3306087787:998537577:297200453:2646022:2486033201:4053781465:949390639:248216333:3351955446
LOG:md_rand.c:curr_pid: 1100
LOG:bn_rand.c:tim: 1379706761
LOG:bn_rand.c:buf:10236336:0:0:0:0:0:0:0:0:0:0:0:0:0:0:0
LOG:md_rand.c:curr_pid: 1100
LOG:bn_prime.c:
LOG:bn_prime.c:Selecting random value
LOG:bn_rand.c:tim: 1379706761
LOG:bn_rand.c:buf:10234608:0:3711181907:231302795:28355133:2794350412:1075258462:2649516151:4242682070:3606555790:2279303718:2405370064:2564854920:997611577:2515943160:4142830345
LOG:md_rand.c:curr_pid: 1100
LOG:bn_rand.c:tim: 1379706761
LOG:bn_rand.c:buf:10236336:0:0:0:0:0:0:0:0:0:0:0:0:0:0:0
LOG:md_rand.c:curr_pid: 1100
LOG:bn_prime.c:
LOG:bn_prime.c:Selecting random value
LOG:bn_rand.c:tim: 1379706761
LOG:bn_rand.c:buf:10234608:0:3572821096:543432989:3650873049:105622235:2217591324:3306128596:901558493:3497442617:2562842592:3383164461:1125502991:517224591:1394813560:3391147833
LOG:md_rand.c:curr_pid: 1100
LOG:bn_rand.c:tim: 1379706761
LOG:bn_rand.c:buf:10236336:0:0:0:0:0:0:0:0:0:0:0:0:0:0:0
LOG:md_rand.c:curr_pid: 1100
LOG:bn_rand.c:tim: 1379706761
LOG:bn_rand.c:buf:10236336:0:0:0:0:0:0:0:0:0:0:0:0:0:0:0
LOG:md_rand.c:curr_pid: 1100
LOG:bn_rand.c:tim: 1379706761
LOG:bn_rand.c:buf:10236336:0:0:0:0:0:0:0:0:0:0:0:0:0:0:0
LOG:md_rand.c:curr_pid: 1100
LOG:bn_prime.c:
LOG:bn_prime.c:Selecting random value
LOG:bn_rand.c:tim: 1379706761
LOG:bn_rand.c:buf:10234608:0:3066230943:1904754269:3479777899:75742194:3843073609:2683763964:1685656214:222754617:2701507472:1384119083:3277297542:517781054:373952234:3297405905
LOG:md_rand.c:curr_pid: 1100
LOG:bn_rand.c:tim: 1379706761
LOG:bn_rand.c:buf:10236336:0:0:0:0:0:0:0:0:0:0:0:0:0:0:0
LOG:md_rand.c:curr_pid: 1100
LOG:bn_prime.c:
LOG:bn_prime.c:Selecting random value
LOG:bn_rand.c:tim: 1379706761
LOG:bn_rand.c:buf:10234608:0:2709130352:1771505367:4092250525:2773202778:4072777470:3146391754:2077579628:1657559453:2708868684:2119209297:1969789030:493123884:3405844028:4037183707
LOG:md_rand.c:curr_pid: 1100
LOG:bn_rand.c:tim: 1379706761
LOG:bn_rand.c:buf:10236336:0:0:0:0:0:0:0:0:0:0:0:0:0:0:0
LOG:md_rand.c:curr_pid: 1100
LOG:bn_rand.c:tim: 1379706761
LOG:bn_rand.c:buf:10236336:0:0:0:0:0:0:0:0:0:0:0:0:0:0:0
LOG:md_rand.c:curr_pid: 1100
LOG:bn_prime.c:
LOG:bn_prime.c:Selecting random value
LOG:bn_rand.c:tim: 1379706761
LOG:bn_rand.c:buf:10234608:0:1873151026:1603064460:712475222:3473464630:4048334888:1531419864:3094581648:285569203:1791674181:3196307458:1744706264:186239350:576720956:3596517391
LOG:md_rand.c:curr_pid: 1100
LOG:bn_rand.c:tim: 1379706761
LOG:bn_rand.c:buf:10236336:0:0:0:0:0:0:0:0:0:0:0:0:0:0:0
LOG:md_rand.c:curr_pid: 1100
LOG:bn_prime.c:
LOG:bn_prime.c:Selecting random value
LOG:bn_rand.c:tim: 1379706761
LOG:bn_rand.c:buf:10234608:0:406396856:4191776972:4025682445:1330730012:3268368391:2236167096:1689462192:2832536773:1581334145:1552250798:4257216:2943846097:3070169496:3942996035
LOG:md_rand.c:curr_pid: 1100
LOG:bn_rand.c:tim: 1379706761
LOG:bn_rand.c:buf:10236336:0:0:0:0:0:0:0:0:0:0:0:0:0:0:0
LOG:md_rand.c:curr_pid: 1100
LOG:bn_rand.c:tim: 1379706761
LOG:bn_rand.c:buf:10236336:0:0:0:0:0:0:0:0:0:0:0:0:0:0:0
LOG:md_rand.c:curr_pid: 1100
LOG:bn_rand.c:tim: 1379706761
LOG:bn_rand.c:buf:10236336:0:0:0:0:0:0:0:0:0:0:0:0:0:0:0
LOG:md_rand.c:curr_pid: 1100
LOG:bn_prime.c:
LOG:bn_prime.c:Selecting random value
LOG:bn_rand.c:tim: 1379706761
LOG:bn_rand.c:buf:10234608:0:3875108441:1736298662:2952108717:1161358449:3252596056:3636632569:2305939607:2830751259:730919222:2244839334:2924695353:545035044:2001366560:3380535631
LOG:md_rand.c:curr_pid: 1100
LOG:bn_rand.c:tim: 1379706761
LOG:bn_rand.c:buf:10236336:0:0:0:0:0:0:0:0:0:0:0:0:0:0:0
LOG:md_rand.c:curr_pid: 1100
LOG:bn_prime.c:
LOG:bn_prime.c:Selecting random value
LOG:bn_rand.c:tim: 1379706761
LOG:bn_rand.c:buf:10234608:0:2055941406:1393468077:397577384:2894067679:1157656068:44179669:1191202897:1244615698:2859522452:3617812463:2703741671:821302356:2123756453:3913037846
LOG:md_rand.c:curr_pid: 1100
LOG:bn_rand.c:tim: 1379706761
LOG:bn_rand.c:buf:10236336:0:0:0:0:0:0:0:0:0:0:0:0:0:0:0
LOG:md_rand.c:curr_pid: 1100
LOG:bn_prime.c:
LOG:bn_prime.c:Selecting random value
LOG:bn_rand.c:tim: 1379706761
LOG:bn_rand.c:buf:10234608:0:1709880041:871790716:3609457001:3221195929:3541204939:290391368:429920689:1217026517:2397494062:3415125249:705089939:3320071740:272046146:3569422517
LOG:md_rand.c:curr_pid: 1100
LOG:bn_rand.c:tim: 1379706761
LOG:bn_rand.c:buf:10236336:0:0:0:0:0:0:0:0:0:0:0:0:0:0:0
LOG:md_rand.c:curr_pid: 1100
LOG:bn_prime.c:
LOG:bn_prime.c:Selecting random value
LOG:bn_rand.c:tim: 1379706761
LOG:bn_rand.c:buf:10234608:0:3123411727:2539415571:1409173905:1510854038:2153477229:3962589943:2410188854:1748460087:2676869845:2589688057:549068500:115160324:3532709580:3969403792
LOG:md_rand.c:curr_pid: 1100
LOG:bn_rand.c:tim: 1379706761
LOG:bn_rand.c:buf:10236336:0:0:0:0:0:0:0:0:0:0:0:0:0:0:0
LOG:md_rand.c:curr_pid: 1100
LOG:bn_prime.c:
LOG:bn_prime.c:Selecting random value
LOG:bn_rand.c:tim: 1379706761
LOG:bn_rand.c:buf:10234608:0:3372538734:3359412105:2021116612:2858288070:3106072764:2496802461:802019754:2178244404:2627388154:3070525999:2650805563:1289413658:3255993119:4188025216
LOG:md_rand.c:curr_pid: 1100
LOG:bn_rand.c:tim: 1379706761
LOG:bn_rand.c:buf:10236336:0:0:0:0:0:0:0:0:0:0:0:0:0:0:0
LOG:md_rand.c:curr_pid: 1100
LOG:bn_prime.c:
LOG:bn_prime.c:Selecting random value
LOG:bn_rand.c:tim: 1379706761
LOG:bn_rand.c:buf:10234608:0:772722319:3068382479:1499313970:1967214791:864049238:1442221806:3119471871:4166801100:3932415634:1924364768:1986459959:2363219048:870155075:3671673631
LOG:md_rand.c:curr_pid: 1100
LOG:bn_rand.c:tim: 1379706761
LOG:bn_rand.c:buf:10236336:0:0:0:0:0:0:0:0:0:0:0:0:0:0:0
LOG:md_rand.c:curr_pid: 1100
LOG:bn_rand.c:tim: 1379706761
LOG:bn_rand.c:buf:10236336:0:0:0:0:0:0:0:0:0:0:0:0:0:0:0
LOG:md_rand.c:curr_pid: 1100
LOG:bn_rand.c:tim: 1379706761
LOG:bn_rand.c:buf:10236336:0:0:0:0:0:0:0:0:0:0:0:0:0:0:0
LOG:md_rand.c:curr_pid: 1100
LOG:bn_rand.c:tim: 1379706761
LOG:bn_rand.c:buf:10236336:0:0:0:0:0:0:0:0:0:0:0:0:0:0:0
LOG:md_rand.c:curr_pid: 1100
LOG:bn_rand.c:tim: 1379706761
LOG:bn_rand.c:buf:10236336:0:0:0:0:0:0:0:0:0:0:0:0:0:0:0
LOG:md_rand.c:curr_pid: 1100
LOG:bn_rand.c:tim: 1379706761
LOG:bn_rand.c:buf:10236336:0:0:0:0:0:0:0:0:0:0:0:0:0:0:0
LOG:md_rand.c:curr_pid: 1100
LOG:rsa_gen.c:DONE generating RSA prime p
LOG:rsa_gen.c:Generating RSA prime q
LOG:bn_prime.c:
LOG:bn_prime.c:Selecting random value
LOG:bn_rand.c:tim: 1379706761
LOG:bn_rand.c:buf:10236016:0:0:0:0:0:0:0:0:0:0:0:0:0:0:0
LOG:md_rand.c:curr_pid: 1100
LOG:bn_rand.c:tim: 1379706761
LOG:bn_rand.c:buf:10235280:0:0:0:0:0:0:0:0:0:0:0:0:0:0:0
LOG:md_rand.c:curr_pid: 1100
LOG:bn_rand.c:tim: 1379706761
LOG:bn_rand.c:buf:10232848:0:469715866:1480013289:1314307640:3324599268:1790550422:4087323070:3076262560:2706441566:1130351195:2542063840:3896269327:3187517039:3407759845:79178845
LOG:md_rand.c:curr_pid: 1100
LOG:bn_rand.c:tim: 1379706761
LOG:bn_rand.c:buf:10232848:0:0:0:0:0:0:0:0:0:0:0:0:0:0:0
LOG:md_rand.c:curr_pid: 1100
LOG:bn_rand.c:tim: 1379706761
LOG:bn_rand.c:buf:10232848:0:0:0:0:0:0:0:0:0:0:0:0:0:0:0
LOG:md_rand.c:curr_pid: 1100
LOG:bn_rand.c:tim: 1379706761
LOG:bn_rand.c:buf:10232848:0:0:0:0:0:0:0:0:0:0:0:0:0:0:0
LOG:md_rand.c:curr_pid: 1100
LOG:bn_rand.c:tim: 1379706761
LOG:bn_rand.c:buf:10232848:0:0:0:0:0:0:0:0:0:0:0:0:0:0:0
LOG:md_rand.c:curr_pid: 1100
LOG:bn_rand.c:tim: 1379706761
LOG:bn_rand.c:buf:10232848:0:0:0:0:0:0:0:0:0:0:0:0:0:0:0
LOG:md_rand.c:curr_pid: 1100
LOG:bn_rand.c:tim: 1379706761
LOG:bn_rand.c:buf:10232848:0:0:0:0:0:0:0:0:0:0:0:0:0:0:0
LOG:md_rand.c:curr_pid: 1100
LOG:rsa_gen.c:DONE generating RSA prime q
-----BEGIN RSA PRIVATE KEY-----
MIICXgIBAAKBgQDNiR5HvjgzL3DUC+p0Gkw+Z+QIh6ABxm/HO7n1fu3NBQZlLjuc
/PIZq0qIuYQibbUkwyJ5cG9bhOzHsx34nBpS/1sx13QpE1j4+sKEfsTlYQJbIYth
9yNx2S2kTIqbiJo1ydfCPMN7VlPQKPy/Cw4+jSAx0xtkzp/k64XoEJ6ZqQIDAQAB
AoGBAJdUdtwB3SUqr9sgbt5PIoXsPkRdf1zvOwupGRD9BJ+oLH5A3RmIT8TAjp8+
YGBtACtyFSbutr7ejuu2IMIURXg2onxHFKIk+RiVK7+VA76uRDvERwhAcaoxU07F
/PvMrb+xCz8h6qAkC32golFT3Vinh6e6Z8NxQUkU8GbphP4BAkEA7LAxsCC7JN0m
Td/qr2rYck91X+6kxax7HyXyhPMIC2dTS/UIc2X3VOKHemU4lSPMlA0uCqsQl0MG
+GTquzuhwQJBAN5OOd9/OVuB/B6VMQUCL0ISumtZF7+AIMmm1s8/wI3+HvE1c5BY
LvZZ11p0TvMWTUwuZlRzP2tLDL3sjrIeoekCQQDTnfje83S/Uebka5Ylvo7FLVvR
KMozXrI6ODBsQ+pmX7xuxicHHhyTzXG5sfR0C6zmlh4bNbVAuJHr1ja0rm1BAkEA
o8IyRZ49jVgqdgjmzE64q06KfstpgAsNnB5HvPG0kaSx/HOohps/NQAncJ2fDtjN
5iGEBg/DlvD5GOsqjrGcCQJAaD/LoGzWx6kiEgTWF6xeAdyOKvjHvhfQSbxvwcdE
CLCTBGiFB4c2P55NPPp4y7C9RTsOpp6NRJZvxyzgnUIUJA==
-----END RSA PRIVATE KEY-----
